{
    "fields": [
        {
            "name": "ORG_CLE_NEW",
            "description": "Code de l'organisme de liquidation",
            "type": "string",
            "nomenclature": "IR_ORG_V",
            "length": "3",
            "format": "default",
            "dateCreated": "",
            "dateDeleted": "",
            "dateMissing": [],
            "observation": "",
            "regle_gestion": "",
            "type_oracle": "string"
        },
        {
            "name": "PRS_ANO_COD",
            "description": "Type d'anomalie ou code contrôle",
            "type": "string",
            "nomenclature": "IR_TAN_V",
            "length": "10",
            "format": "default",
            "dateCreated": "",
            "dateDeleted": "",
            "dateMissing": [],
            "observation": "",
            "regle_gestion": "",
            "type_oracle": "string"
        },
        {
            "name": "PRS_ANO_COM",
            "description": "Commentaire  rejet / signalement",
            "type": "string",
            "nomenclature": "-",
            "length": "50",
            "format": "default",
            "dateCreated": "",
            "dateDeleted": "",
            "dateMissing": [],
            "observation": "",
            "regle_gestion": "",
            "type_oracle": "string"
        },
        {
            "name": "PRS_ANO_DEF",
            "description": "Valeur de remplacement",
            "type": "string",
            "nomenclature": "-",
            "length": "50",
            "format": "default",
            "dateCreated": "",
            "dateDeleted": "",
            "dateMissing": [],
            "observation": "",
            "regle_gestion": "",
            "type_oracle": "string"
        },
        {
            "name": "PRS_ANO_DON",
            "description": "Code donnée impactée",
            "type": "string",
            "nomenclature": "-",
            "length": "11",
            "format": "default",
            "dateCreated": "",
            "dateDeleted": "",
            "dateMissing": [],
            "observation": "",
            "regle_gestion": "",
            "type_oracle": "string"
        },
        {
            "name": "PRS_ANO_ORI",
            "description": "Valeur d'origine",
            "type": "string",
            "nomenclature": "-",
            "length": "50",
            "format": "default",
            "dateCreated": "",
            "dateDeleted": "",
            "dateMissing": [],
            "observation": "",
            "regle_gestion": "",
            "type_oracle": "string"
        },
        {
            "name": "PRS_ENT_COD",
            "description": "Code entité",
            "type": "string",
            "nomenclature": "-",
            "length": "10",
            "format": "default",
            "dateCreated": "",
            "dateDeleted": "",
            "dateMissing": [],
            "observation": "",
            "regle_gestion": "",
            "type_oracle": "string"
        },
        {
            "name": "PRS_ENT_NUM",
            "description": "N° ordre entité / type remboursement",
            "type": "number",
            "nomenclature": "-",
            "length": "3",
            "format": "default",
            "dateCreated": "",
            "dateDeleted": "",
            "dateMissing": [],
            "observation": "",
            "regle_gestion": "",
            "type_oracle": "number"
        },
        {
            "name": "DCT_ORD_NUM",
            "description": "N° ordre décompte dans caisse                      1",
            "type": "number",
            "nomenclature": "-",
            "length": "8",
            "format": "default",
            "dateCreated": "",
            "dateDeleted": "",
            "dateMissing": [],
            "observation": "",
            "regle_gestion": "",
            "type_oracle": "number"
        },
        {
            "name": "FLX_DIS_DTD",
            "description": "Date de mise à disposition des données",
            "type": "date",
            "nomenclature": "IR_DTE_V",
            "length": "8",
            "format": "default",
            "dateCreated": "",
            "dateDeleted": "",
            "dateMissing": [],
            "observation": "",
            "regle_gestion": "",
            "type_oracle": "date"
        },
        {
            "name": "FLX_EMT_NUM",
            "description": "numéro d'émetteur du flux",
            "type": "number",
            "nomenclature": "IR_NEM_T",
            "length": "4",
            "format": "default",
            "dateCreated": "",
            "dateDeleted": "",
            "dateMissing": [],
            "observation": "",
            "regle_gestion": "",
            "type_oracle": "number"
        },
        {
            "name": "FLX_EMT_ORD",
            "description": "numéro de séquence du flux",
            "type": "number",
            "nomenclature": "-",
            "length": "4",
            "format": "default",
            "dateCreated": "",
            "dateDeleted": "",
            "dateMissing": [],
            "observation": "",
            "regle_gestion": "",
            "type_oracle": "number"
        },
        {
            "name": "FLX_EMT_TYP",
            "description": "Type d'émetteur",
            "type": "number",
            "nomenclature": "IR_TYT_V",
            "length": "2",
            "format": "default",
            "dateCreated": "",
            "dateDeleted": "",
            "dateMissing": [],
            "observation": "",
            "regle_gestion": "",
            "type_oracle": "number"
        },
        {
            "name": "FLX_TRT_DTD",
            "description": "Date d'entrée des données dans le système d'information",
            "type": "date",
            "nomenclature": "IR_DTE_V",
            "length": "8",
            "format": "default",
            "dateCreated": "",
            "dateDeleted": "",
            "dateMissing": [],
            "observation": "",
            "regle_gestion": "",
            "type_oracle": "date"
        },
        {
            "name": "ORG_CLE_NUM",
            "description": "organisme de liquidation des prestations (avant fusion des caisses)",
            "type": "string",
            "nomenclature": "IR_ORG_V",
            "length": "9",
            "format": "default",
            "dateCreated": "",
            "dateDeleted": "",
            "dateMissing": [],
            "observation": "",
            "regle_gestion": "",
            "type_oracle": "string"
        },
        {
            "name": "PRS_ORD_NUM",
            "description": "Numéro d'ordre de la prestation dans le décompte",
            "type": "number",
            "nomenclature": "-",
            "length": "5",
            "format": "default",
            "dateCreated": "",
            "dateDeleted": "",
            "dateMissing": [],
            "observation": "",
            "regle_gestion": "",
            "type_oracle": "number"
        },
        {
            "name": "REM_TYP_AFF",
            "description": "Type de remboursement affiné                                 9",
            "type": "number",
            "nomenclature": "-",
            "length": "8",
            "format": "default",
            "dateCreated": "",
            "dateDeleted": "",
            "dateMissing": [],
            "observation": "",
            "regle_gestion": "",
            "type_oracle": "number"
        }
    ],
    "name": "ER_ANO_F",
    "title": "Table des anomalies",
    "produit": "DCIR",
    "missingValues": [
        ""
    ],
    "foreignKeys": [
        {
            "fields": [
                "DCT_ORD_NUM",
                "FLX_DIS_DTD",
                "FLX_EMT_NUM",
                "FLX_EMT_ORD",
                "FLX_EMT_TYP",
                "FLX_TRT_DTD",
                "ORG_CLE_NUM",
                "PRS_ORD_NUM",
                "REM_TYP_AFF"
            ],
            "reference": {
                "resource": "ER_PRS_F",
                "fields": [
                    "DCT_ORD_NUM",
                    "FLX_DIS_DTD",
                    "FLX_EMT_NUM",
                    "FLX_EMT_ORD",
                    "FLX_EMT_TYP",
                    "FLX_TRT_DTD",
                    "ORG_CLE_NUM",
                    "PRS_ORD_NUM",
                    "REM_TYP_AFF"
                ]
            }
        }
    ],
    "history": {
        "dateCreated": "",
        "dateDeleted": "",
        "dateMissing": []
    },
    "champ": "",
    "observation": ""
}