{
    "fields": [
        {
            "name": "DEL_DAT_ENT",
            "description": "delai par rapport a date entree",
            "type": "number",
            "nomenclature": "-",
            "length": null,
            "format": "default",
            "dateCreated": "2014",
            "dateDeleted": "2017",
            "dateMissing": [
                "2015",
                "2016"
            ],
            "type_oracle": "number"
        },
        {
            "name": "ENT_ANN",
            "description": "Année de la date début de séjour",
            "type": "string",
            "nomenclature": "-",
            "length": null,
            "format": "default",
            "dateCreated": "2014",
            "dateDeleted": "2017",
            "dateMissing": [
                "2015",
                "2016"
            ],
            "type_oracle": "string"
        },
        {
            "name": "ENT_MOI",
            "description": "Mois de la date début de séjour",
            "type": "string",
            "nomenclature": "-",
            "length": null,
            "format": "default",
            "dateCreated": "2014",
            "dateDeleted": "2017",
            "dateMissing": [
                "2015",
                "2016"
            ],
            "type_oracle": "string"
        },
        {
            "name": "ETA_NUM_EPMSI",
            "description": "N° FINESS ePMSI",
            "type": "string",
            "nomenclature": "-",
            "length": null,
            "format": "default",
            "dateCreated": "2014",
            "dateDeleted": "2017",
            "dateMissing": [
                "2015",
                "2016"
            ],
            "type_oracle": "string"
        },
        {
            "name": "ETA_NUM_GEO",
            "description": "Numéro FINESS  géographique",
            "type": "string",
            "nomenclature": "-",
            "length": null,
            "format": "default",
            "dateCreated": "2017",
            "dateDeleted": "2017",
            "dateMissing": [],
            "type_oracle": "string"
        },
        {
            "name": "FAC_MNT",
            "description": "Montant total facturé",
            "type": "number",
            "nomenclature": "-",
            "length": null,
            "format": "default",
            "dateCreated": "2014",
            "dateDeleted": "2017",
            "dateMissing": [
                "2015",
                "2016"
            ],
            "type_oracle": "number"
        },
        {
            "name": "FAC_NUM",
            "description": "N° séquentiel de facture (idem RAPSS)",
            "type": "string",
            "nomenclature": "-",
            "length": null,
            "format": "default",
            "dateCreated": "2014",
            "dateDeleted": "2017",
            "dateMissing": [
                "2015",
                "2016"
            ],
            "type_oracle": "string"
        },
        {
            "name": "LPP_COD",
            "description": "Code référence LPP",
            "type": "string",
            "nomenclature": "-",
            "length": null,
            "format": "default",
            "dateCreated": "2014",
            "dateDeleted": "2017",
            "dateMissing": [
                "2015",
                "2016"
            ],
            "type_oracle": "string"
        },
        {
            "name": "LPP_PRI_UNI",
            "description": "Prix d'achat unitaire",
            "type": "number",
            "nomenclature": "-",
            "length": null,
            "format": "default",
            "dateCreated": "2014",
            "dateDeleted": "2017",
            "dateMissing": [
                "2015",
                "2016"
            ],
            "type_oracle": "number"
        },
        {
            "name": "LPP_PU_DEV",
            "description": "Tarif référence LPP Prix Unitaire sur devis",
            "type": "number",
            "nomenclature": "-",
            "length": null,
            "format": "default",
            "dateCreated": "2014",
            "dateDeleted": "2017",
            "dateMissing": [
                "2015",
                "2016"
            ],
            "type_oracle": "number"
        },
        {
            "name": "LPP_QUA",
            "description": "Quantité",
            "type": "number",
            "nomenclature": "-",
            "length": null,
            "format": "default",
            "dateCreated": "2014",
            "dateDeleted": "2017",
            "dateMissing": [
                "2015",
                "2016"
            ],
            "type_oracle": "number"
        },
        {
            "name": "MNT_UNI_ECA",
            "description": "Montant unitaire de l'écart indemnisable",
            "type": "number",
            "nomenclature": "-",
            "length": null,
            "format": "default",
            "dateCreated": "2014",
            "dateDeleted": "2017",
            "dateMissing": [
                "2015",
                "2016"
            ],
            "type_oracle": "number"
        },
        {
            "name": "RHAD_NUM",
            "description": "Numéro séquentiel d'entrée (idem RAPSS)",
            "type": "string",
            "nomenclature": "-",
            "length": null,
            "format": "default",
            "dateCreated": "2014",
            "dateDeleted": "2017",
            "dateMissing": [
                "2015",
                "2016"
            ],
            "type_oracle": "string"
        },
        {
            "name": "TIP_PRS_IDE",
            "description": "Code LPP (13 c)",
            "type": "number",
            "nomenclature": "NT_LPP",
            "length": null,
            "format": "default",
            "dateCreated": "2014",
            "dateDeleted": "2017",
            "dateMissing": [
                "2015",
                "2016"
            ],
            "type_oracle": "number"
        },
        {
            "name": "TOT_MNT_ECA",
            "description": "Montant total de l'écart indemnisable",
            "type": "number",
            "nomenclature": "-",
            "length": null,
            "format": "default",
            "dateCreated": "2014",
            "dateDeleted": "2017",
            "dateMissing": [
                "2015",
                "2016"
            ],
            "type_oracle": "number"
        },
        {
            "name": "TYP_ART",
            "description": "Type d'enregistrement",
            "type": "string",
            "nomenclature": "-",
            "length": null,
            "format": "default",
            "dateCreated": "2014",
            "dateDeleted": "2017",
            "dateMissing": [
                "2015",
                "2016"
            ],
            "type_oracle": "string"
        }
    ],
    "name": "T_HADaa_nnFP",
    "title": "Table FP : Table des RSFA des LPP/DMI en sus des établissements ex-OQN",
    "description": "Champ : Privé",
    "produit": "PMSI HAD",
    "missingValues": [
        ""
    ],
    "foreignKeys": [
        {
            "fields": [
                "ETA_NUM_EPMSI",
                "RHAD_NUM"
            ],
            "reference": {
                "resource": "T_HADaa_nnB",
                "fields": [
                    "ETA_NUM_EPMSI",
                    "RHAD_NUM"
                ]
            }
        }
    ],
    "history": {
        "dateCreated": "2017",
        "dateDeleted": "2017",
        "dateMissing": []
    }
}