{
    "fields": [
        {
            "name": "ANN",
            "description": "Année période",
            "type": "string",
            "nomenclature": "-",
            "length": null,
            "format": "default",
            "dateCreated": "2008",
            "dateDeleted": "2017",
            "dateMissing": [],
            "type_oracle": "string"
        },
        {
            "name": "DELAI",
            "description": "Délai entre la date d’entrée du séjour et la date de début de la prestation",
            "type": "number",
            "nomenclature": "-",
            "length": null,
            "format": "default",
            "dateCreated": "2008",
            "dateDeleted": "2017",
            "dateMissing": [],
            "type_oracle": "number"
        },
        {
            "name": "ETA_NUM",
            "description": "N° FINESS e-PMSI",
            "type": "string",
            "nomenclature": "-",
            "length": null,
            "format": "default",
            "dateCreated": "2008",
            "dateDeleted": "2017",
            "dateMissing": [],
            "type_oracle": "string"
        },
        {
            "name": "ETA_NUM_ENT",
            "description": "N° FINESS du fichier d'entrée",
            "type": "string",
            "nomenclature": "-",
            "length": null,
            "format": "default",
            "dateCreated": "2017",
            "dateDeleted": "2017",
            "dateMissing": [],
            "type_oracle": "string"
        },
        {
            "name": "MOI",
            "description": "N° période (mois)",
            "type": "string",
            "nomenclature": "-",
            "length": null,
            "format": "default",
            "dateCreated": "2008",
            "dateDeleted": "2017",
            "dateMissing": [],
            "type_oracle": "string"
        },
        {
            "name": "POS_ANN",
            "description": "Année de la date de début de la prestation",
            "type": "string",
            "nomenclature": "-",
            "length": null,
            "format": "default",
            "dateCreated": "2009",
            "dateDeleted": "2017",
            "dateMissing": [],
            "type_oracle": "string"
        },
        {
            "name": "POS_MOI",
            "description": "Mois de la date de début de la prestation",
            "type": "string",
            "nomenclature": "-",
            "length": null,
            "format": "default",
            "dateCreated": "2008",
            "dateDeleted": "2017",
            "dateMissing": [],
            "type_oracle": "string"
        },
        {
            "name": "PRS_COD",
            "description": "Code Prestation",
            "type": "string",
            "nomenclature": "-",
            "length": null,
            "format": "default",
            "dateCreated": "2008",
            "dateDeleted": "2017",
            "dateMissing": [],
            "type_oracle": "string"
        },
        {
            "name": "PRS_JOU_NBR",
            "description": "Durée de la prestation",
            "type": "number",
            "nomenclature": "-",
            "length": null,
            "format": "default",
            "dateCreated": "2008",
            "dateDeleted": "2017",
            "dateMissing": [],
            "type_oracle": "number"
        },
        {
            "name": "PRS_TYP",
            "description": "Type de prestation",
            "type": "string",
            "nomenclature": "-",
            "length": null,
            "format": "default",
            "dateCreated": "2008",
            "dateDeleted": "2017",
            "dateMissing": [],
            "type_oracle": "string"
        },
        {
            "name": "RSA_NUM",
            "description": "N° d'index du RSA",
            "type": "string",
            "nomenclature": "-",
            "length": null,
            "format": "default",
            "dateCreated": "2008",
            "dateDeleted": "2017",
            "dateMissing": [],
            "type_oracle": "string"
        },
        {
            "name": "SUP_PAY_NBR",
            "description": "Nombre de suppléments payés",
            "type": "number",
            "nomenclature": "-",
            "length": null,
            "format": "default",
            "dateCreated": "2009",
            "dateDeleted": "2017",
            "dateMissing": [],
            "type_oracle": "number"
        }
    ],
    "name": "T_MCOaa_nnPIE",
    "title": "Fich comp prestation inter établissement",
    "description": "Champ : Public",
    "produit": "PMSI MCO",
    "missingValues": [
        ""
    ],
    "foreignKeys": [
        {
            "fields": [
                "ETA_NUM",
                "RSA_NUM"
            ],
            "reference": {
                "resource": "T_MCOaa_nnB",
                "fields": [
                    "ETA_NUM",
                    "RSA_NUM"
                ]
            }
        }
    ],
    "history": {
        "dateCreated": "2008",
        "dateDeleted": "2017",
        "dateMissing": []
    }
}