{
    "fields": [
        {
            "name": "ETA_NUM_EPMSI",
            "description": "FINESS d’inscription e-PMSI",
            "type": "string",
            "nomenclature": "-",
            "length": null,
            "format": "default",
            "dateCreated": "2007",
            "dateDeleted": "2017",
            "dateMissing": [],
            "type_oracle": "string"
        },
        {
            "name": "ETA_NUM_TWO",
            "description": "Second n° FINESS",
            "type": "string",
            "nomenclature": "-",
            "length": null,
            "format": "default",
            "dateCreated": "2007",
            "dateDeleted": "2017",
            "dateMissing": [],
            "type_oracle": "string"
        },
        {
            "name": "FOR_NUM",
            "description": "N° format",
            "type": "string",
            "nomenclature": "-",
            "length": null,
            "format": "default",
            "dateCreated": "2009",
            "dateDeleted": "2017",
            "dateMissing": [],
            "type_oracle": "string"
        },
        {
            "name": "FOR_NUM_HOSP",
            "description": "N° format VID-HOSP",
            "type": "string",
            "nomenclature": "-",
            "length": null,
            "format": "default",
            "dateCreated": "2009",
            "dateDeleted": "2017",
            "dateMissing": [],
            "type_oracle": "string"
        },
        {
            "name": "ENT_MOI",
            "description": "Mois de la date d'entrée du séjour",
            "type": "string",
            "nomenclature": "-",
            "length": null,
            "format": "default",
            "dateCreated": "2010",
            "dateDeleted": "2017",
            "dateMissing": [],
            "type_oracle": "string"
        },
        {
            "name": "ENT_ANN",
            "description": "Année de la date d'entrée du séjour",
            "type": "string",
            "nomenclature": "-",
            "length": null,
            "format": "default",
            "dateCreated": "2010",
            "dateDeleted": "2017",
            "dateMissing": [],
            "type_oracle": "string"
        },
        {
            "name": "NIR_RET",
            "description": "Code retour contrôle « n° sécurité sociale »",
            "type": "string",
            "nomenclature": "-",
            "length": null,
            "format": "default",
            "dateCreated": "2007",
            "dateDeleted": "2017",
            "dateMissing": [],
            "type_oracle": "string"
        },
        {
            "name": "NAI_RET",
            "description": "Code retour contrôle « date de  naissance »",
            "type": "string",
            "nomenclature": "-",
            "length": null,
            "format": "default",
            "dateCreated": "2007",
            "dateDeleted": "2017",
            "dateMissing": [],
            "type_oracle": "string"
        },
        {
            "name": "SEX_RET",
            "description": "Code retour contrôle « sexe »",
            "type": "string",
            "nomenclature": "-",
            "length": null,
            "format": "default",
            "dateCreated": "2007",
            "dateDeleted": "2017",
            "dateMissing": [],
            "type_oracle": "string"
        },
        {
            "name": "SEJ_RET",
            "description": "Code retour contrôle « n° d’identification administratif de séjour »",
            "type": "string",
            "nomenclature": "-",
            "length": null,
            "format": "default",
            "dateCreated": "2007",
            "dateDeleted": "2017",
            "dateMissing": [],
            "type_oracle": "string"
        },
        {
            "name": "FHO_RET",
            "description": "Code retour « fusion ANO-HOSP et HOSP-PMSI »",
            "type": "string",
            "nomenclature": "-",
            "length": null,
            "format": "default",
            "dateCreated": "2007",
            "dateDeleted": "2017",
            "dateMissing": [],
            "type_oracle": "string"
        },
        {
            "name": "PMS_RET",
            "description": "Code retour « fusion ANO-PMSI et fichier PMSI »",
            "type": "string",
            "nomenclature": "-",
            "length": null,
            "format": "default",
            "dateCreated": "2007",
            "dateDeleted": "2017",
            "dateMissing": [],
            "type_oracle": "string"
        },
        {
            "name": "DAT_RET",
            "description": "Code retour contrôle « date de référence» (date d’entrée du séjour)",
            "type": "string",
            "nomenclature": "-",
            "length": null,
            "format": "default",
            "dateCreated": "2007",
            "dateDeleted": "2017",
            "dateMissing": [],
            "type_oracle": "string"
        },
        {
            "name": "COH_NAI_RET",
            "description": "Code retour contrôle « Cohérence date naissance »",
            "type": "string",
            "nomenclature": "-",
            "length": null,
            "format": "default",
            "dateCreated": "2013",
            "dateDeleted": "2017",
            "dateMissing": [],
            "type_oracle": "string"
        },
        {
            "name": "COH_SEX_RET",
            "description": "Code retour contrôle « Cohérence sexe »",
            "type": "string",
            "nomenclature": "-",
            "length": null,
            "format": "default",
            "dateCreated": "2013",
            "dateDeleted": "2017",
            "dateMissing": [],
            "type_oracle": "string"
        },
        {
            "name": "NIR_ANO_17",
            "description": "N° anonyme",
            "type": "string",
            "nomenclature": "-",
            "length": null,
            "format": "default",
            "dateCreated": "2007",
            "dateDeleted": "2017",
            "dateMissing": [],
            "type_oracle": "string"
        },
        {
            "name": "SEJ_NUM",
            "description": "N° de séjour",
            "type": "string",
            "nomenclature": "-",
            "length": null,
            "format": "default",
            "dateCreated": "2007",
            "dateDeleted": "2017",
            "dateMissing": [],
            "type_oracle": "string"
        },
        {
            "name": "RIP_NUM",
            "description": "N° séquentiel dans fichier PMSI",
            "type": "string",
            "nomenclature": "-",
            "length": null,
            "format": "default",
            "dateCreated": "2007",
            "dateDeleted": "2017",
            "dateMissing": [],
            "type_oracle": "string"
        },
        {
            "name": "ENT_DAT",
            "description": "Date d'entrée du séjour PMSI",
            "type": "string",
            "nomenclature": "-",
            "length": null,
            "format": "default",
            "dateCreated": "2009",
            "dateDeleted": "2017",
            "dateMissing": [],
            "type_oracle": "string"
        },
        {
            "name": "SOR_DAT",
            "description": "Date de sortie du séjour PMSI",
            "type": "string",
            "nomenclature": "-",
            "length": null,
            "format": "default",
            "dateCreated": "2009",
            "dateDeleted": "2017",
            "dateMissing": [],
            "type_oracle": "string"
        },
        {
            "name": "EXE_SOI_DTD",
            "description": "date d'entrée",
            "type": "datetime",
            "nomenclature": "-",
            "length": null,
            "format": "default",
            "dateCreated": "2009",
            "dateDeleted": "2017",
            "dateMissing": [],
            "type_oracle": "datetime"
        },
        {
            "name": "EXE_SOI_DTF",
            "description": "date de sortie",
            "type": "datetime",
            "nomenclature": "-",
            "length": null,
            "format": "default",
            "dateCreated": "2009",
            "dateDeleted": "2017",
            "dateMissing": [],
            "type_oracle": "datetime"
        },
        {
            "name": "EXE_SOI_AMD",
            "description": "Date d'entrée au format année + mois",
            "type": "string",
            "nomenclature": "-",
            "length": null,
            "format": "default",
            "dateCreated": "2009",
            "dateDeleted": "2017",
            "dateMissing": [],
            "type_oracle": "string"
        },
        {
            "name": "EXE_SOI_AMF",
            "description": "Date de sortie au format année + mois",
            "type": "string",
            "nomenclature": "-",
            "length": null,
            "format": "default",
            "dateCreated": "2009",
            "dateDeleted": "2017",
            "dateMissing": [],
            "type_oracle": "string"
        },
        {
            "name": "NUM_DAT_AT_RET",
            "description": "Code retour contrôle « Numéro accident du travail ou date d’accident de droit commun«",
            "type": "string",
            "nomenclature": "-",
            "length": null,
            "format": "default",
            "dateCreated": "2015",
            "dateDeleted": "2017",
            "dateMissing": [],
            "type_oracle": "string"
        },
        {
            "name": "ORG_CPL_NUM_RET",
            "description": "Code retour contrôle « N° d’organisme complémentaire«",
            "type": "string",
            "nomenclature": "-",
            "length": null,
            "format": "default",
            "dateCreated": "2015",
            "dateDeleted": "2017",
            "dateMissing": [],
            "type_oracle": "string"
        },
        {
            "name": "ETA_NUM_RET",
            "description": "Code retour contrôle «N° FINESS d’inscription e-PMSI«",
            "type": "string",
            "nomenclature": "-",
            "length": null,
            "format": "default",
            "dateCreated": "2017",
            "dateDeleted": "2017",
            "dateMissing": [],
            "type_oracle": "string"
        },
        {
            "name": "NUM_DAT_AT",
            "description": "Numéro accident du travail ou date d’accident de droit commun",
            "type": "string",
            "nomenclature": "-",
            "length": null,
            "format": "default",
            "dateCreated": "2015",
            "dateDeleted": "2017",
            "dateMissing": [],
            "type_oracle": "string"
        },
        {
            "name": "ORG_CPL_NUM",
            "description": "N° d’organisme complémentaire",
            "type": "string",
            "nomenclature": "-",
            "length": null,
            "format": "default",
            "dateCreated": "2015",
            "dateDeleted": "2017",
            "dateMissing": [],
            "type_oracle": "string"
        }
    ],
    "name": "T_RIPaa_nnC",
    "title": "chainage",
    "description": "Champ : Public et Privé",
    "produit": "PMSI RIM-P",
    "missingValues": [
        ""
    ],
    "primaryKey": [
        "ETA_NUM_EPMSI",
        "RIP_NUM"
    ],
    "foreignKeys": [
        {
            "fields": [
                "ETA_NUM_EPMSI",
                "RIP_NUM"
            ],
            "reference": {
                "resource": "T_RIPaa_nnFB",
                "fields": [
                    "ETA_NUM_EPMSI",
                    "RIP_NUM"
                ]
            },
            "description": "Bidirectionnel"
        },
        {
            "fields": "NIR_ANO_17",
            "reference": {
                "resource": "IR_BEN_R",
                "fields": "BEN_NIR_PSA"
            }
        }
    ],
    "history": {
        "dateCreated": "2007",
        "dateDeleted": "2017",
        "dateMissing": []
    }
}