{
    "fields": [
        {
            "name": "ETA_NUM",
            "description": "n°finess de l'établissement",
            "type": "string",
            "nomenclature": "-",
            "length": "9",
            "format": "default",
            "dateCreated": "2013",
            "dateDeleted": "",
            "dateMissing": [],
            "observation": "",
            "regle_gestion": "",
            "type_oracle": "string"
        },
        {
            "name": "fides",
            "description": "Variable \"valorisé par fides\" du RAFAEL-A",
            "type": "string",
            "nomenclature": "-",
            "length": "1",
            "format": "default",
            "dateCreated": "2013",
            "dateDeleted": "",
            "dateMissing": [],
            "observation": "",
            "regle_gestion": "",
            "type_oracle": "string"
        },
        {
            "name": "fides_ovalide",
            "description": "Indicateur (calculé par OVALIDE) servant à la valorisation FIDES",
            "type": "string",
            "nomenclature": "-",
            "length": "1",
            "format": "default",
            "dateCreated": "2013",
            "dateDeleted": "",
            "dateMissing": [],
            "observation": "",
            "regle_gestion": "",
            "type_oracle": "string"
        },
        {
            "name": "mnt_br",
            "description": "Montant Base de remboursement total",
            "type": "number",
            "nomenclature": "-",
            "length": "10,2",
            "format": "default",
            "dateCreated": "2013",
            "dateDeleted": "",
            "dateMissing": [],
            "observation": "",
            "regle_gestion": "",
            "type_oracle": "number"
        },
        {
            "name": "mnt_br_atu",
            "description": "Montant Base de remboursement ATU",
            "type": "number",
            "nomenclature": "-",
            "length": "10,2",
            "format": "default",
            "dateCreated": "2013",
            "dateDeleted": "",
            "dateMissing": [],
            "observation": "",
            "regle_gestion": "",
            "type_oracle": "number"
        },
        {
            "name": "mnt_br_ccam",
            "description": "Montant Base de remboursement CCAM",
            "type": "number",
            "nomenclature": "-",
            "length": "10,2",
            "format": "default",
            "dateCreated": "2013",
            "dateDeleted": "",
            "dateMissing": [],
            "observation": "",
            "regle_gestion": "",
            "type_oracle": "number"
        },
        {
            "name": "mnt_br_dia",
            "description": "Montant Base de remboursement Alternative à la dialyse en centre",
            "type": "number",
            "nomenclature": "-",
            "length": "10,2",
            "format": "default",
            "dateCreated": "2013",
            "dateDeleted": "",
            "dateMissing": [],
            "observation": "",
            "regle_gestion": "",
            "type_oracle": "number"
        },
        {
            "name": "mnt_br_dm_ext",
            "description": "Montant Base de remboursement DM externe",
            "type": "number",
            "nomenclature": "-",
            "length": "10,2",
            "format": "default",
            "dateCreated": "2013",
            "dateDeleted": "",
            "dateMissing": [],
            "observation": "",
            "regle_gestion": "",
            "type_oracle": "number"
        },
        {
            "name": "mnt_br_ffm",
            "description": "Montant Base de remboursement FFM",
            "type": "number",
            "nomenclature": "-",
            "length": "10,2",
            "format": "default",
            "dateCreated": "2013",
            "dateDeleted": "",
            "dateMissing": [],
            "observation": "",
            "regle_gestion": "",
            "type_oracle": "number"
        },
        {
            "name": "mnt_br_ftn",
            "description": "Montant Base de remboursement FTN",
            "type": "number",
            "nomenclature": "-",
            "length": "10,2",
            "format": "default",
            "dateCreated": "2013",
            "dateDeleted": "",
            "dateMissing": [],
            "observation": "",
            "regle_gestion": "",
            "type_oracle": "number"
        },
        {
            "name": "MNT_BR_MED_EXT",
            "description": "Montant Base de remboursement Médicaments externe",
            "type": "number",
            "nomenclature": "-",
            "length": "10,2",
            "format": "default",
            "dateCreated": "2017",
            "dateDeleted": "",
            "dateMissing": [],
            "observation": "",
            "regle_gestion": "",
            "type_oracle": "number"
        },
        {
            "name": "mnt_br_ngap",
            "description": "Montant Base de remboursement NGAP",
            "type": "number",
            "nomenclature": "-",
            "length": "10,2",
            "format": "default",
            "dateCreated": "2013",
            "dateDeleted": "",
            "dateMissing": [],
            "observation": "",
            "regle_gestion": "",
            "type_oracle": "number"
        },
        {
            "name": "MNT_BR_PI",
            "description": "Montant Base de remboursement Prestations Intermédiares",
            "type": "number",
            "nomenclature": "-",
            "length": "10,2",
            "format": "default",
            "dateCreated": "2017",
            "dateDeleted": "",
            "dateMissing": [],
            "observation": "",
            "regle_gestion": "",
            "type_oracle": "number"
        },
        {
            "name": "mnt_br_se",
            "description": "Montant Base de remboursement SE",
            "type": "number",
            "nomenclature": "-",
            "length": "10,2",
            "format": "default",
            "dateCreated": "2013",
            "dateDeleted": "",
            "dateMissing": [],
            "observation": "",
            "regle_gestion": "",
            "type_oracle": "number"
        },
        {
            "name": "MNT_RAC",
            "description": "Montant remboursable par l'organisme complémentaire (AMC)",
            "type": "number",
            "nomenclature": "-",
            "length": "10,2",
            "format": "default",
            "dateCreated": "2016",
            "dateDeleted": "",
            "dateMissing": [],
            "observation": "",
            "regle_gestion": "",
            "type_oracle": "number"
        },
        {
            "name": "mnt_remb",
            "description": "Montant Remboursé AM  total, y compris factures FIDES",
            "type": "number",
            "nomenclature": "-",
            "length": "10,2",
            "format": "default",
            "dateCreated": "2013",
            "dateDeleted": "",
            "dateMissing": [],
            "observation": "",
            "regle_gestion": "",
            "type_oracle": "number"
        },
        {
            "name": "mnt_remb_atu",
            "description": "Montant Remboursé AM ATU, y compris factures FIDES",
            "type": "number",
            "nomenclature": "-",
            "length": "10,2",
            "format": "default",
            "dateCreated": "2013",
            "dateDeleted": "",
            "dateMissing": [],
            "observation": "",
            "regle_gestion": "",
            "type_oracle": "number"
        },
        {
            "name": "mnt_remb_ccam",
            "description": "Montant Remboursé AM CCAM, y compris factures FIDES",
            "type": "number",
            "nomenclature": "-",
            "length": "10,2",
            "format": "default",
            "dateCreated": "2013",
            "dateDeleted": "",
            "dateMissing": [],
            "observation": "",
            "regle_gestion": "",
            "type_oracle": "number"
        },
        {
            "name": "mnt_remb_dia",
            "description": "Montant Remboursé AM Alternative à la dialyse en centre, y compris factures FIDES",
            "type": "number",
            "nomenclature": "-",
            "length": "10,2",
            "format": "default",
            "dateCreated": "2013",
            "dateDeleted": "",
            "dateMissing": [],
            "observation": "",
            "regle_gestion": "",
            "type_oracle": "number"
        },
        {
            "name": "mnt_remb_dm_ext",
            "description": "Montant Remboursé AM DM externe, y compris factures FIDES",
            "type": "number",
            "nomenclature": "-",
            "length": "10,2",
            "format": "default",
            "dateCreated": "2013",
            "dateDeleted": "",
            "dateMissing": [],
            "observation": "",
            "regle_gestion": "",
            "type_oracle": "number"
        },
        {
            "name": "mnt_remb_ffm",
            "description": "Montant Remboursé AM FFM, y compris factures FIDES",
            "type": "number",
            "nomenclature": "-",
            "length": "10,2",
            "format": "default",
            "dateCreated": "2013",
            "dateDeleted": "",
            "dateMissing": [],
            "observation": "",
            "regle_gestion": "",
            "type_oracle": "number"
        },
        {
            "name": "mnt_remb_ftn",
            "description": "Montant Remboursé AM FTN, y compris factures FIDES",
            "type": "number",
            "nomenclature": "-",
            "length": "10,2",
            "format": "default",
            "dateCreated": "2013",
            "dateDeleted": "",
            "dateMissing": [],
            "observation": "",
            "regle_gestion": "",
            "type_oracle": "number"
        },
        {
            "name": "MNT_REMB_MED_EXT",
            "description": "Montant Remboursé AM  Médicaments externe",
            "type": "number",
            "nomenclature": "-",
            "length": "10,2",
            "format": "default",
            "dateCreated": "2017",
            "dateDeleted": "",
            "dateMissing": [],
            "observation": "",
            "regle_gestion": "",
            "type_oracle": "number"
        },
        {
            "name": "mnt_remb_ngap",
            "description": "Montant Remboursé AM NGAP, y compris factures FIDES",
            "type": "number",
            "nomenclature": "-",
            "length": "10,2",
            "format": "default",
            "dateCreated": "2013",
            "dateDeleted": "",
            "dateMissing": [],
            "observation": "",
            "regle_gestion": "",
            "type_oracle": "number"
        },
        {
            "name": "MNT_REMB_PI",
            "description": "Montant Remboursé AM Prestations Intermédiares",
            "type": "number",
            "nomenclature": "-",
            "length": "10,2",
            "format": "default",
            "dateCreated": "2017",
            "dateDeleted": "",
            "dateMissing": [],
            "observation": "",
            "regle_gestion": "",
            "type_oracle": "number"
        },
        {
            "name": "mnt_remb_se",
            "description": "Montant Remboursé AM SE, y compris factures FIDES",
            "type": "number",
            "nomenclature": "-",
            "length": "10,2",
            "format": "default",
            "dateCreated": "2013",
            "dateDeleted": "",
            "dateMissing": [],
            "observation": "",
            "regle_gestion": "",
            "type_oracle": "number"
        },
        {
            "name": "mnt_val",
            "description": "Montant AM effectivement valorisé par OVALIDE",
            "type": "number",
            "nomenclature": "-",
            "length": "10,2",
            "format": "default",
            "dateCreated": "2013",
            "dateDeleted": "",
            "dateMissing": [],
            "observation": "",
            "regle_gestion": "",
            "type_oracle": "number"
        },
        {
            "name": "mnt_val_atu",
            "description": "Montant AM effectivement valorisé par OVALIDE ATU",
            "type": "number",
            "nomenclature": "-",
            "length": "10,2",
            "format": "default",
            "dateCreated": "2013",
            "dateDeleted": "",
            "dateMissing": [],
            "observation": "",
            "regle_gestion": "",
            "type_oracle": "number"
        },
        {
            "name": "mnt_val_ccam",
            "description": "Montant AM effectivement valorisé par OVALIDE CCAM",
            "type": "number",
            "nomenclature": "-",
            "length": "10,2",
            "format": "default",
            "dateCreated": "2013",
            "dateDeleted": "",
            "dateMissing": [],
            "observation": "",
            "regle_gestion": "",
            "type_oracle": "number"
        },
        {
            "name": "mnt_val_dia",
            "description": "Montant AM effectivement valorisé par OVALIDE Alternative à la dialyse en centre",
            "type": "number",
            "nomenclature": "-",
            "length": "10,2",
            "format": "default",
            "dateCreated": "2013",
            "dateDeleted": "",
            "dateMissing": [],
            "observation": "",
            "regle_gestion": "",
            "type_oracle": "number"
        },
        {
            "name": "mnt_val_dm_ext",
            "description": "Montant AM effectivement valorisé par OVALIDE DM externe",
            "type": "number",
            "nomenclature": "-",
            "length": "10,2",
            "format": "default",
            "dateCreated": "2013",
            "dateDeleted": "",
            "dateMissing": [],
            "observation": "",
            "regle_gestion": "",
            "type_oracle": "number"
        },
        {
            "name": "mnt_val_ffm",
            "description": "Montant AM effectivement valorisé par OVALIDE FFM",
            "type": "number",
            "nomenclature": "-",
            "length": "10,2",
            "format": "default",
            "dateCreated": "2013",
            "dateDeleted": "",
            "dateMissing": [],
            "observation": "",
            "regle_gestion": "",
            "type_oracle": "number"
        },
        {
            "name": "mnt_val_ftn",
            "description": "Montant AM effectivement valorisé par OVALIDE FTN",
            "type": "number",
            "nomenclature": "-",
            "length": "10,2",
            "format": "default",
            "dateCreated": "2013",
            "dateDeleted": "",
            "dateMissing": [],
            "observation": "",
            "regle_gestion": "",
            "type_oracle": "number"
        },
        {
            "name": "MNT_VAL_MED_EXT",
            "description": "Montant AM effectivement valorisé par OVALIDE Médicaments externe",
            "type": "number",
            "nomenclature": "-",
            "length": "10,2",
            "format": "default",
            "dateCreated": "2017",
            "dateDeleted": "",
            "dateMissing": [],
            "observation": "",
            "regle_gestion": "",
            "type_oracle": "number"
        },
        {
            "name": "mnt_val_ngap",
            "description": "Montant AM effectivement valorisé par OVALIDE NGAP",
            "type": "number",
            "nomenclature": "-",
            "length": "10,2",
            "format": "default",
            "dateCreated": "2013",
            "dateDeleted": "",
            "dateMissing": [],
            "observation": "",
            "regle_gestion": "",
            "type_oracle": "number"
        },
        {
            "name": "MNT_VAL_PI",
            "description": "Montant AM effectivement valorisé par OVALIDE PI",
            "type": "number",
            "nomenclature": "-",
            "length": "10,2",
            "format": "default",
            "dateCreated": "2017",
            "dateDeleted": "",
            "dateMissing": [],
            "observation": "",
            "regle_gestion": "",
            "type_oracle": "number"
        },
        {
            "name": "mnt_val_se",
            "description": "Montant AM effectivement valorisé par OVALIDE SE",
            "type": "number",
            "nomenclature": "-",
            "length": "10,2",
            "format": "default",
            "dateCreated": "2013",
            "dateDeleted": "",
            "dateMissing": [],
            "observation": "",
            "regle_gestion": "",
            "type_oracle": "number"
        },
        {
            "name": "nbligne",
            "description": "Nb lignes de la facture",
            "type": "number",
            "nomenclature": "-",
            "length": "10",
            "format": "default",
            "dateCreated": "2013",
            "dateDeleted": "",
            "dateMissing": [],
            "observation": "",
            "regle_gestion": "",
            "type_oracle": "number"
        },
        {
            "name": "NON_SEJ_FAC_AM",
            "description": "Variable \"Motif de non facturation à l'assurance maladie\" du RAFAEL-A",
            "type": "string",
            "nomenclature": "-",
            "length": "1",
            "format": "default",
            "dateCreated": "2013",
            "dateDeleted": "",
            "dateMissing": [],
            "observation": "",
            "regle_gestion": "",
            "type_oracle": "string"
        },
        {
            "name": "pf18",
            "description": "Participation forfaitaire 18 euros déduite sur la facture",
            "type": "string",
            "nomenclature": "-",
            "length": "1",
            "format": "default",
            "dateCreated": "2013",
            "dateDeleted": "",
            "dateMissing": [],
            "observation": "",
            "regle_gestion": "",
            "type_oracle": "string"
        },
        {
            "name": "SEJ_FAC_AM",
            "description": "Variable \"Séjour facturable à l'assurance maladie\" du RAFAEL-A",
            "type": "string",
            "nomenclature": "-",
            "length": "1",
            "format": "default",
            "dateCreated": "2013",
            "dateDeleted": "",
            "dateMissing": [],
            "observation": "",
            "regle_gestion": "",
            "type_oracle": "string"
        },
        {
            "name": "SEQ_NUM",
            "description": "n°  de facture séquentiel",
            "type": "string",
            "nomenclature": "-",
            "length": "8",
            "format": "default",
            "dateCreated": "2013",
            "dateDeleted": "",
            "dateMissing": [],
            "observation": "",
            "regle_gestion": "",
            "type_oracle": "string"
        },
        {
            "name": "valo",
            "description": "Type de valorisation du séjour",
            "type": "string",
            "nomenclature": "-",
            "length": "1",
            "format": "default",
            "dateCreated": "2013",
            "dateDeleted": "",
            "dateMissing": [],
            "observation": "",
            "regle_gestion": "",
            "type_oracle": "string"
        }
    ],
    "name": "T_MCOaa_nnVALOACE",
    "title": "Valorisation des actes et consultations externes",
    "produit": "PMSI MCO",
    "missingValues": [
        ""
    ],
    "foreignKeys": [
        {
            "fields": [
                "ETA_NUM",
                "SEQ_NUM"
            ],
            "reference": {
                "resource": "T_MCOaa_nnFASTC",
                "fields": [
                    "ETA_NUM",
                    "SEQ_NUM"
                ]
            }
        }
    ],
    "history": {
        "dateCreated": "2013",
        "dateDeleted": "",
        "dateMissing": []
    },
    "champ": "Public",
    "observation": "les HCL ne pas transmettent plus d'ACE au niveau finess géo à partir de 2015"
}