{
    "name": "T_MCOaa_nnSUP_CES",
    "title": "Fich sup ACE Consultations externes Spécifiques",
    "produit": "PMSI MCO",
    "history": {
        "dateCreated": "2014",
        "dateDeleted": "",
        "dateMissing": []
    },
    "missingValues": [
        ""
    ],
    "fields": [
        {
            "name": "CL_PLURI_PRO",
            "description": "consultations avec contact d’un autre professionnel",
            "type": "string",
            "length": "1",
            "dateCreated": "2014",
            "dateDeleted": "",
            "nomenclature": "-",
            "dateMissing": [],
            "format": "default",
            "observation": "",
            "regle_gestion": "",
            "type_oracle": "string"
        },
        {
            "name": "NBR_PAT_SUP1",
            "description": "Le nombre de patients suivis depuis plus d’un an",
            "type": "number",
            "length": "10",
            "dateCreated": "2014",
            "dateDeleted": "",
            "nomenclature": "-",
            "dateMissing": [],
            "format": "default",
            "observation": "",
            "regle_gestion": "",
            "type_oracle": "number"
        },
        {
            "name": "CONSULT_MIG",
            "description": "Code Consultation",
            "type": "string",
            "length": "2",
            "dateCreated": "2014",
            "dateDeleted": "",
            "nomenclature": "-",
            "dateMissing": [],
            "format": "default",
            "observation": "",
            "regle_gestion": "",
            "type_oracle": "string"
        },
        {
            "name": "NBR_CONS_MIG",
            "description": "Le nombre total de consultations médicales pendant l’année",
            "type": "number",
            "length": "10",
            "dateCreated": "2014",
            "dateDeleted": "",
            "nomenclature": "-",
            "dateMissing": [],
            "format": "default",
            "observation": "",
            "regle_gestion": "",
            "type_oracle": "number"
        },
        {
            "name": "FIC_TYP",
            "description": "Type de fichier",
            "type": "string",
            "length": "3",
            "dateCreated": "2014",
            "dateDeleted": "",
            "nomenclature": "-",
            "dateMissing": [],
            "format": "default",
            "observation": "",
            "regle_gestion": "",
            "type_oracle": "string"
        },
        {
            "name": "CL_AUT_PRO",
            "description": "Autre professionnel (hors professionnel de santé)",
            "type": "string",
            "length": "1",
            "dateCreated": "2014",
            "dateDeleted": "",
            "nomenclature": "-",
            "dateMissing": [],
            "format": "default",
            "observation": "",
            "regle_gestion": "",
            "type_oracle": "string"
        },
        {
            "name": "NBR_PAT_CONS",
            "description": "La file active de patients (nombre de patients vus au moins une fois en consultation au cours de l’année)",
            "type": "number",
            "length": "10",
            "dateCreated": "2014",
            "dateDeleted": "",
            "nomenclature": "-",
            "dateMissing": [],
            "format": "default",
            "observation": "",
            "regle_gestion": "",
            "type_oracle": "number"
        },
        {
            "name": "NBR_PAT_NVX",
            "description": "Le nombre de patient vu pour la première fois cette année",
            "type": "number",
            "length": "10",
            "dateCreated": "2014",
            "dateDeleted": "",
            "nomenclature": "-",
            "dateMissing": [],
            "format": "default",
            "observation": "",
            "regle_gestion": "",
            "type_oracle": "number"
        },
        {
            "name": "P_CONS_30_60",
            "description": "La durée des consultations entre 30 et 60 minutes",
            "type": "number",
            "length": "3",
            "dateCreated": "2014",
            "dateDeleted": "",
            "nomenclature": "-",
            "dateMissing": [],
            "format": "default",
            "observation": "",
            "regle_gestion": "",
            "type_oracle": "number"
        },
        {
            "name": "CL_PARA_MED",
            "description": "Autre professionnel de santé (psychologue, diététicien, masseur-kinésithérapeute)",
            "type": "string",
            "length": "1",
            "dateCreated": "2014",
            "dateDeleted": "",
            "nomenclature": "-",
            "dateMissing": [],
            "format": "default",
            "observation": "",
            "regle_gestion": "",
            "type_oracle": "string"
        },
        {
            "name": "P_CONS_60_120",
            "description": "La durée des consultations entre 60 et 120 minutes",
            "type": "number",
            "length": "3",
            "dateCreated": "2014",
            "dateDeleted": "",
            "nomenclature": "-",
            "dateMissing": [],
            "format": "default",
            "observation": "",
            "regle_gestion": "",
            "type_oracle": "number"
        },
        {
            "name": "ETA_NUM",
            "description": "N° FINESS",
            "type": "string",
            "length": "9",
            "dateCreated": "2014",
            "dateDeleted": "",
            "nomenclature": "-",
            "dateMissing": [],
            "format": "default",
            "observation": "",
            "regle_gestion": "",
            "type_oracle": "string"
        },
        {
            "name": "ANN",
            "description": "Année",
            "type": "string",
            "length": "4",
            "dateCreated": "2014",
            "dateDeleted": "",
            "nomenclature": "-",
            "dateMissing": [],
            "format": "default",
            "observation": "",
            "regle_gestion": "",
            "type_oracle": "string"
        },
        {
            "name": "CL_AUT_MED",
            "description": "Autre médecin",
            "type": "string",
            "length": "1",
            "dateCreated": "2014",
            "dateDeleted": "",
            "nomenclature": "-",
            "dateMissing": [],
            "format": "default",
            "observation": "",
            "regle_gestion": "",
            "type_oracle": "string"
        },
        {
            "name": "NBR_PAT_SUP5",
            "description": "Le nombre de patient suivis depuis plus de 5 ans",
            "type": "number",
            "length": "10",
            "dateCreated": "2014",
            "dateDeleted": "",
            "nomenclature": "-",
            "dateMissing": [],
            "format": "default",
            "observation": "",
            "regle_gestion": "",
            "type_oracle": "number"
        },
        {
            "name": "P_CONS_SUP_120",
            "description": "La durée des consultations supérieure à 120 minutes",
            "type": "number",
            "length": "3",
            "dateCreated": "2014",
            "dateDeleted": "",
            "nomenclature": "-",
            "dateMissing": [],
            "format": "default",
            "observation": "",
            "regle_gestion": "",
            "type_oracle": "number"
        },
        {
            "name": "CL_ASS_SOC",
            "description": "Assistante sociale",
            "type": "string",
            "length": "1",
            "dateCreated": "2014",
            "dateDeleted": "",
            "nomenclature": "-",
            "dateMissing": [],
            "format": "default",
            "observation": "",
            "regle_gestion": "",
            "type_oracle": "string"
        },
        {
            "name": "MOI",
            "description": "Période",
            "type": "string",
            "length": "2",
            "dateCreated": "2014",
            "dateDeleted": "",
            "nomenclature": "-",
            "dateMissing": [],
            "format": "default",
            "observation": "",
            "regle_gestion": "",
            "type_oracle": "string"
        }
    ],
    "champ": "Public",
    "observation": "Chgt de nom en 2015 ajout du préfixe SUP_",
    "foreignKeys": [
        {
            "fields": [
                "ETA_NUM"
            ],
            "reference": {
                "resource": "T_MCOaa_nnE",
                "fields": [
                    "ETA_NUM"
                ]
            }
        }
    ]
}