{
    "name": "T_MCOaa_nnBPHN",
    "title": "B et P hors nomenclature (extension de fichier .bphn)",
    "produit": "PMSI MCO",
    "history": {
        "dateCreated": "2010",
        "dateDeleted": "2011",
        "dateMissing": []
    },
    "missingValues": [
        ""
    ],
    "fields": [
        {
            "name": "NBR_FAC_AUT_ETP",
            "description": "Nombre facturé pour un autre établissement public",
            "type": "number",
            "length": "10",
            "dateCreated": "2010",
            "dateDeleted": "2011",
            "nomenclature": "-",
            "dateMissing": [],
            "format": "default",
            "observation": "",
            "regle_gestion": "",
            "type_oracle": "number"
        },
        {
            "name": "NBR_FAC_TOT",
            "description": "Nombre total facturé",
            "type": "number",
            "length": "10",
            "dateCreated": "2010",
            "dateDeleted": "2011",
            "nomenclature": "-",
            "dateMissing": [],
            "format": "default",
            "observation": "",
            "regle_gestion": "",
            "type_oracle": "number"
        },
        {
            "name": "ACT_COD",
            "description": "Code acte",
            "type": "string",
            "length": "4",
            "dateCreated": "2010",
            "dateDeleted": "2011",
            "nomenclature": "IR_ACT_COD",
            "dateMissing": [],
            "format": "default",
            "observation": "",
            "regle_gestion": "",
            "type_oracle": "string"
        },
        {
            "name": "ANN_MOI",
            "description": "Mois et année",
            "type": "date",
            "length": null,
            "dateCreated": "2010",
            "dateDeleted": "2011",
            "nomenclature": "-",
            "dateMissing": [],
            "format": "default",
            "observation": "",
            "regle_gestion": "",
            "type_oracle": "date"
        },
        {
            "name": "NBR_AUT_ETP",
            "description": "Nombre réalisé pour un autre établissement public",
            "type": "number",
            "length": "10",
            "dateCreated": "2010",
            "dateDeleted": "2011",
            "nomenclature": "-",
            "dateMissing": [],
            "format": "default",
            "observation": "",
            "regle_gestion": "",
            "type_oracle": "number"
        },
        {
            "name": "NBR_REA_TOT",
            "description": "Nombre total réalisé",
            "type": "number",
            "length": "10",
            "dateCreated": "2010",
            "dateDeleted": "2011",
            "nomenclature": "-",
            "dateMissing": [],
            "format": "default",
            "observation": "",
            "regle_gestion": "",
            "type_oracle": "number"
        },
        {
            "name": "NBR_PHE",
            "description": "Nombre réalisé pour  patients hospitalisés au sein de l’établissement",
            "type": "number",
            "length": "10",
            "dateCreated": "2010",
            "dateDeleted": "2011",
            "nomenclature": "-",
            "dateMissing": [],
            "format": "default",
            "observation": "",
            "regle_gestion": "",
            "type_oracle": "number"
        },
        {
            "name": "FIC_TYP",
            "description": "Type de fichier",
            "type": "string",
            "length": "3",
            "dateCreated": "2010",
            "dateDeleted": "2011",
            "nomenclature": "-",
            "dateMissing": [],
            "format": "default",
            "observation": "",
            "regle_gestion": "",
            "type_oracle": "string"
        },
        {
            "name": "NBR_INC_DEM",
            "description": "Nombre réalisé autre ou demandeur inconnu",
            "type": "number",
            "length": "10",
            "dateCreated": "2010",
            "dateDeleted": "2011",
            "nomenclature": "-",
            "dateMissing": [],
            "format": "default",
            "observation": "",
            "regle_gestion": "",
            "type_oracle": "number"
        },
        {
            "name": "NBR_FAC_CON_EXT",
            "description": "Nombre facturé pour consultants externes",
            "type": "number",
            "length": "10",
            "dateCreated": "2010",
            "dateDeleted": "2011",
            "nomenclature": "-",
            "dateMissing": [],
            "format": "default",
            "observation": "",
            "regle_gestion": "",
            "type_oracle": "number"
        },
        {
            "name": "NBR_FAC_SEC_LIB",
            "description": "Nombre facturé  émanant du secteur libéral",
            "type": "number",
            "length": "10",
            "dateCreated": "2010",
            "dateDeleted": "2011",
            "nomenclature": "-",
            "dateMissing": [],
            "format": "default",
            "observation": "",
            "regle_gestion": "",
            "type_oracle": "number"
        },
        {
            "name": "NBR_CON_EXT",
            "description": "Nombre réalisé pour consultants externes",
            "type": "number",
            "length": "10",
            "dateCreated": "2010",
            "dateDeleted": "2011",
            "nomenclature": "-",
            "dateMissing": [],
            "format": "default",
            "observation": "",
            "regle_gestion": "",
            "type_oracle": "number"
        },
        {
            "name": "ETA_NUM",
            "description": "Numéro FINESS e-PMSI",
            "type": "string",
            "length": "9",
            "dateCreated": "2010",
            "dateDeleted": "2011",
            "nomenclature": "-",
            "dateMissing": [],
            "format": "default",
            "observation": "",
            "regle_gestion": "",
            "type_oracle": "string"
        },
        {
            "name": "NBR_FAC_INC_DEM",
            "description": "Nombre facturé autre ou demandeur inconnu",
            "type": "number",
            "length": "10",
            "dateCreated": "2010",
            "dateDeleted": "2011",
            "nomenclature": "-",
            "dateMissing": [],
            "format": "default",
            "observation": "",
            "regle_gestion": "",
            "type_oracle": "number"
        },
        {
            "name": "NBR_FAC_PHE",
            "description": "Nombre facturé pour patients hospitalisés au sein de l’établissement",
            "type": "number",
            "length": "10",
            "dateCreated": "2010",
            "dateDeleted": "2011",
            "nomenclature": "-",
            "dateMissing": [],
            "format": "default",
            "observation": "",
            "regle_gestion": "",
            "type_oracle": "number"
        },
        {
            "name": "NBR_SEC_LIB",
            "description": "Nombre réalisé émanant du secteur libéral",
            "type": "number",
            "length": "10",
            "dateCreated": "2010",
            "dateDeleted": "2011",
            "nomenclature": "-",
            "dateMissing": [],
            "format": "default",
            "observation": "",
            "regle_gestion": "",
            "type_oracle": "number"
        }
    ],
    "champ": "Public",
    "observation": "",
    "foreignKeys": [
        {
            "fields": [
                "ETA_NUM"
            ],
            "reference": {
                "resource": "T_MCOaa_nnE",
                "fields": [
                    "ETA_NUM"
                ]
            }
        }
    ]
}