{
    "name": "T_MCOaa_nnSUP_SMUR",
    "title": "Fich sup SMUR",
    "produit": "PMSI MCO",
    "history": {
        "dateCreated": "2016",
        "dateDeleted": "",
        "dateMissing": []
    },
    "missingValues": [
        ""
    ],
    "fields": [
        {
            "name": "ETA_NUM",
            "description": "Numéro FINESS ePMSI",
            "type": "string",
            "length": "9",
            "dateCreated": "2016",
            "dateDeleted": "",
            "nomenclature": "-",
            "dateMissing": [],
            "format": "default",
            "observation": "",
            "regle_gestion": "",
            "type_oracle": "string"
        },
        {
            "name": "NBR_SOR_PRIM",
            "description": "Nombre de sorties primaires",
            "type": "number",
            "length": "6",
            "dateCreated": "2016",
            "dateDeleted": "",
            "nomenclature": "-",
            "dateMissing": [],
            "format": "default",
            "observation": "",
            "regle_gestion": "",
            "type_oracle": "number"
        },
        {
            "name": "ETA_NUM_SMUR",
            "description": "N° FINESS d’implantation SMUR",
            "type": "string",
            "length": "9",
            "dateCreated": "2016",
            "dateDeleted": "",
            "nomenclature": "-",
            "dateMissing": [],
            "format": "default",
            "observation": "",
            "regle_gestion": "",
            "type_oracle": "string"
        },
        {
            "name": "NBR_SOR_SND",
            "description": "Nombre de sorties secondaires",
            "type": "number",
            "length": "6",
            "dateCreated": "2016",
            "dateDeleted": "",
            "nomenclature": "-",
            "dateMissing": [],
            "format": "default",
            "observation": "",
            "regle_gestion": "",
            "type_oracle": "number"
        },
        {
            "name": "ANN_MOI",
            "description": "Année+Mois",
            "type": "string",
            "length": "6",
            "dateCreated": "2016",
            "dateDeleted": "",
            "nomenclature": "-",
            "dateMissing": [],
            "format": "default",
            "observation": "",
            "regle_gestion": "",
            "type_oracle": "string"
        },
        {
            "name": "FIC_TYP",
            "description": "Type de fichier",
            "type": "string",
            "length": "3",
            "dateCreated": "2016",
            "dateDeleted": "",
            "nomenclature": "-",
            "dateMissing": [],
            "format": "default",
            "observation": "",
            "regle_gestion": "",
            "type_oracle": "string"
        },
        {
            "name": "NBR_TIIH",
            "description": "Nombre TIIH (transfert infirmier inter-hospitalier)",
            "type": "number",
            "length": "6",
            "dateCreated": "2016",
            "dateDeleted": "",
            "nomenclature": "-",
            "dateMissing": [],
            "format": "default",
            "observation": "",
            "regle_gestion": "",
            "type_oracle": "number"
        }
    ],
    "champ": "Public",
    "observation": "",
    "foreignKeys": [
        {
            "fields": [
                "ETA_NUM"
            ],
            "reference": {
                "resource": "T_MCOaa_nnE",
                "fields": [
                    "ETA_NUM"
                ]
            }
        }
    ]
}