ACT_COD,ACT_COE,ACT_NBR,AMC_MNR,AMO_MNR,DEL_DAT_ENT,ENT_ANN,ENT_MOI,ETA_NUM_EPMSI,ETA_NUM_GEO,ETE_GHS_NUM,EXO_TM,FAC_MNT,FAC_NUM,FJ_COD_PEC,GHT_NUM,HAD_COE,NOE_MNR,NOE_OPE,PRI_UNI,PSH_DMT,PSH_MDT,REM_BAS,REM_TAU,RHAD_NUM,SOR_ANN,SOR_MOI,TYP_ART
haHoKysholbSI,9780230269.512,5676647016.115,-7730230562.127,-9650194581.3769,-3980710882.8817,oXIvSJrfpuRxEOf,GJkJopq,KvGzDJyBNqe,AdxiUEcG,6933248144.2027,tCJE,-8137834266.5628,tgAvExXqPTePHoNaI,x,mZsVZwAcmzCnqCsNmP,8480702311.4885,-3982533399.0676,uZubwzwJSlFensZ,-9324905791.5358,fmfsysVqECeQQe,mzrIhRTnbONZZWO,-5627098997.0559,-6914248437.3745,,hX,qhvMpRUBSVCGLE,g
rLugGhNek,990894536.8945,2696674121.0546,9489661888.7291,7831465343.6052,-5058763360.7637,SM,qxrwzSIbRtyhQNEalc,yMUJqCnjoMFOhHzqZX,I,1223310805.3007,yZKCdMvUJmnfUF,9433118399.7958,JmN,EMyzBbusMVkoybHOxG,WteUplRMN,-6842588389.3042,-6261083673.1624,Uszs,-217849840.6883,BJxWNOB,gl,-9371945609.9484,-7326008785.9987,GsXF,lNrAPBcFsQrcnM,CXamHB,ewMuY
ipqVXm,-4371053960.8987,-5019138169.685,4574692670.0221,-4302776650.5216,8526702701.1835,ZrDamrBrSSoCNgBiILvn,,sMEnAwVXRh,rXkpekOFCaEo,-902491951.8849,kxioUaaUbyRr,-322800390.7271,QiTey,pHCDoKQGAaOBbzrnxC,,7338301536.3159,-3536346460.6356,IAOaldqloYNWxTxAOiE,6921701945.6177,hbvzkWaKNN,XztfosGJniIDmBqbwV,-4257494453.2059,-2746290676.4622,BLEcW,HxaS,hmyajsKfEOLYwWjBMS,sujAejjCZJmAznHJCt
LxwREvYVOEcoVDjNZZDI,-8454208678.4165,5161517292.9964,-2970643882.146,-4020472450.8208,7832068765.5553,,hmxFJFhwXAClL,yMUJqCnjoMFOhHzqZX,QzHH,-2956501726.1608,vfbEFBszxAJsDpwXynEJ,-5149545970.0387,FOJV,,QRqgUGLE,-8316861182.7708,3314991405.7662,F,-1771960003.8045,eURIImoG,tko,-6547106888.8959,3582177508.9126,eNRzAbQMvSh,RMkCZBkicaMaMpwQwybJ,qLXDpZJKEyD,ZjrOSfE
TMo,-1110610080.5639,-3738461287.3664,4152102765.1816,5840685213.1086,3665535199.4997,ERyIoUgZkPiYKZqvpA,rDLEEbouUAJLALHRf,yMUJqCnjoMFOhHzqZX,STQBZKYMBl,1717027682.6967,zFuYBKixVBzA,622476596.1451,GNRJamFExxgHKRyaxY,dApTBraRQTkRqki,DoNmNnND,1471473678.7526,1339416019.3843,mgzBFize,2628307474.6153,RjhzvnsEBIW,GtqNBkjcdhihpTltxrCj,-3932472382.4318,-6110998853.3226,GsXF,FpeCyaDGXjsp,eKrwZnLYMhEhtRlwYq,Vh
R,-543840604.8903,8744747149.768,5992092033.2011,-3510588050.4354,1337693189.9934,aOeXxdhCQKbX,alhBYtODRAVQUkeQJ,sMEnAwVXRh,WUlfh,714994885.4615,JsiZTXTG,-4289115290.704,GbsM,CfkWIylCJJlbTkgMkI,eccFdcSXoiqsTHi,-4361204662.7417,-2034920822.0247,nCDGTelgkZW,-4181135254.6773,lZgGIsXqZzOGL,vGt,-6740995549.8582,-4975792330.2601,IatJFblwfYTxpCT,hpNeGRiD,SZApvR,rPOIOmEFQPrj
lerPljEaeVsBSPNPhar,-9029559981.8711,-9142691032.9547,2911237090.1658,7294207733.8052,939317604.8606,ka,PuzDuAOyRKJv,sMEnAwVXRh,oVkjZTjMKeCBJGnKX,6549125535.5869,SJlp,7252607541.0328,L,JSwyzyEuVRnlxzmvzVMA,gnAZQenxjiQ,-4874388843.7999,-2411701689.5081,glqujukzejFpD,856005778.6042,AxlkPxBltwoELNQqEfI,axyOAQautNRi,3986275064.5553,5168327830.7121,BLEcW,StkNWjDraCdWGYowGhZj,bWqNEhrCpRqhv,TCYyZxRfKGBFihSwd
qiJieiuQC,-6733511035.8347,-1182655931.4039,-1708007856.2367,-1049747355.7225,-5791523280.2647,j,z,HpwcpGC,GajjQlJjtyVcDgVN,-4709156025.5593,nOuvuV,-9177996930.7825,dzGpMYETO,S,PfFAdxZzxVH,1279608239.1663,-9788369282.4271,UYBHRDYLPyorB,-5436372401.9339,MuCWpehZMTBlpat,bgBVqxhPW,5430216633.3639,1152371791.2471,EOf,vEStKRzbJNCtpR,Nr,MWChJUYWfmvJzkL
xApSXFeoJirGSVrcGI,-7680985770.0411,8254445798.704,4120620225.4602,964598127.0019,5395089363.7087,,IWHCEeurvsaYdJUMc,,YR,-432418773.2257,DEceCOYvVolcbatv,-7833045320.9856,QcqITciKOYcgGFRSjHb,OnaUC,cntThOOgGJXykhSzWp,-5603532963.6265,-6592687980.1258,CERSJuirXsI,-5194473411.592,QwfUumbOn,,291048952.5653,296058357.8867,ve,vAGFedAzeVYOWDpQdR,vUw,XYdpfksXFNqG
okVojOSRVGCK,2547833654.0885,-899921621.4644,-5067012364.5072,-2856560103.4002,7924602019.1395,wpdLGbVRl,dHXjELAHFXiDOknNUIA,yMUJqCnjoMFOhHzqZX,xaJuxsu,-3044299543.0856,J,5343200908.5739,mhsXfgMpPgmT,cQzJzbb,uVrxvjggpBiihxA,2972415991.652,-7532132586.3979,XGj,9069150541.2859,QCdnrMrTMWPy,QayHjKwhnVMhkhGsAyV,-5283862237.6487,-644002753.578,GsXF,,gDBjFcxNktgeCxWvjuU,VtKsJaJtyzgKhIx
