DGN_ASS_MPP,ETA_NUM_EPMSI,ETA_NUM_GEO,RHAD_NUM,SEQ_NUM,SSEQ_NUM
G972,KvGzDJyBNqe,tfFvqbAe,,cz,KvGzDJyBNqe
G971,yMUJqCnjoMFOhHzqZX,rBjdAcWVuSljeinYeNT,GsXF,HHcIvWObTuYijJeZdsbL,HpwcpGC
G97,sMEnAwVXRh,FONjBbpYsnT,BLEcW,geMw,UgYcxiv
G971,yMUJqCnjoMFOhHzqZX,G,eNRzAbQMvSh,XXwyt,sMEnAwVXRh
G969,yMUJqCnjoMFOhHzqZX,tgaIXNbdkzNOHQsrula,GsXF,xulZRsHxThWKJTQTWeO,yMUJqCnjoMFOhHzqZX
G972,sMEnAwVXRh,YfenN,IatJFblwfYTxpCT,Xxzepf,bBEYliwpinKwulZgSKmU
G971,sMEnAwVXRh,QS,BLEcW,hygjTYydiycyQmt,OjKdlevacIpSTDKN
F1955,HpwcpGC,uPTrzHyyXkeb,EOf,cJQpvNzsa,GJMWKtiwhvfAAKdKeFF
F1953,,KodQDOLPZocoL,ve,jeMZBPJOa,
F1952,yMUJqCnjoMFOhHzqZX,ycfQdpyVyDKx,GsXF,oM,IgbRDDrORSSsXJQmcq
