DEL_DAT_ENT,ENT_ANN,ENT_MOI,ETA_NUM_EPMSI,ETA_NUM_GEO,FAC_MNT,FAC_NUM,LPP_COD,LPP_PRI_UNI,LPP_PU_DEV,LPP_QUA,MNT_UNI_ECA,RHAD_NUM,TIP_PRS_IDE,TOT_MNT_ECA,TYP_ART
9780230269.512,cz,KvGzDJyBNqe,KvGzDJyBNqe,TiItWYuZgJBjmkTGQ,-3980710882.8817,oXIvSJrfpuRxEOf,GJkJopq,6462206814.1958,6933248144.2027,-1596340657.1845,-8137834266.5628,,2331043,9683837010.8515,x
990894536.8945,HHcIvWObTuYijJeZdsbL,HpwcpGC,yMUJqCnjoMFOhHzqZX,dJisS,-5058763360.7637,SM,qxrwzSIbRtyhQNEalc,-9477640368.6027,1223310805.3007,-2735210060.6983,9433118399.7958,GsXF,2330977,-3331754679.7069,EMyzBbusMVkoybHOxG
-4371053960.8987,geMw,UgYcxiv,sMEnAwVXRh,sOqaKwPi,8526702701.1835,ZrDamrBrSSoCNgBiILvn,,-5784587201.3741,-902491951.8849,-6302466244.771,-322800390.7271,BLEcW,2330470,3474032493.3827,pHCDoKQGAaOBbzrnxC
-8454208678.4165,XXwyt,sMEnAwVXRh,yMUJqCnjoMFOhHzqZX,sKs,7832068765.5553,,hmxFJFhwXAClL,2368435386.9922,-2956501726.1608,365654563.3495,-5149545970.0387,eNRzAbQMvSh,2330977,-6072191655.7095,
-1110610080.5639,xulZRsHxThWKJTQTWeO,yMUJqCnjoMFOhHzqZX,yMUJqCnjoMFOhHzqZX,ohX,3665535199.4997,ERyIoUgZkPiYKZqvpA,rDLEEbouUAJLALHRf,-8034310693.262,1717027682.6967,-9827890959.8246,622476596.1451,GsXF,2330428,-2911070707.1795,dApTBraRQTkRqki
-543840604.8903,Xxzepf,bBEYliwpinKwulZgSKmU,sMEnAwVXRh,YIhYQuZuBAaXaBx,1337693189.9934,aOeXxdhCQKbX,alhBYtODRAVQUkeQJ,2402626197.5372,714994885.4615,9378724134.3897,-4289115290.704,IatJFblwfYTxpCT,2331043,6267319063.6412,CfkWIylCJJlbTkgMkI
-9029559981.8711,hygjTYydiycyQmt,OjKdlevacIpSTDKN,sMEnAwVXRh,oLXPjkZHBrBKPzSkUKJK,939317604.8606,ka,PuzDuAOyRKJv,-8922195608.0311,6549125535.5869,6027625120.3292,7252607541.0328,BLEcW,2330977,-5043008929.7748,JSwyzyEuVRnlxzmvzVMA
-6733511035.8347,cJQpvNzsa,GJMWKtiwhvfAAKdKeFF,HpwcpGC,IkXmzrTBeMnwERccpf,-5791523280.2647,j,z,9213081156.0848,-4709156025.5593,5146239772.1731,-9177996930.7825,EOf,2332114,-827773497.0757,S
-7680985770.0411,jeMZBPJOa,,,GBXqemfKyicLpiKuOg,5395089363.7087,,IWHCEeurvsaYdJUMc,9608587484.3015,-432418773.2257,3429686036.8365,-7833045320.9856,ve,2331557,7546028429.9418,OnaUC
2547833654.0885,oM,IgbRDDrORSSsXJQmcq,yMUJqCnjoMFOhHzqZX,iLDaAEomQ,7924602019.1395,wpdLGbVRl,dHXjELAHFXiDOknNUIA,422553005.4245,-3044299543.0856,-9406859823.5015,5343200908.5739,GsXF,2331540,-2166830776.6518,cQzJzbb
