{
    "fields": [
        {
            "name": "AGE_ANN",
            "description": "Age en années",
            "type": "number",
            "nomenclature": "-",
            "length": null,
            "format": "default",
            "dateCreated": "2006",
            "dateDeleted": "2017",
            "dateMissing": [],
            "type_oracle": "number"
        },
        {
            "name": "AGE_JOU",
            "description": "Age en jours",
            "type": "number",
            "nomenclature": "-",
            "length": null,
            "format": "default",
            "dateCreated": "2006",
            "dateDeleted": "2017",
            "dateMissing": [],
            "type_oracle": "number"
        },
        {
            "name": "AVQ_ALI",
            "description": "Cotation dépendance AVQ, alimentation",
            "type": "string",
            "nomenclature": "-",
            "length": null,
            "format": "default",
            "dateCreated": "2006",
            "dateDeleted": "2017",
            "dateMissing": [],
            "type_oracle": "string"
        },
        {
            "name": "AVQ_CON",
            "description": "Cotation dépendance AVQ, continence",
            "type": "string",
            "nomenclature": "-",
            "length": null,
            "format": "default",
            "dateCreated": "2006",
            "dateDeleted": "2017",
            "dateMissing": [],
            "type_oracle": "string"
        },
        {
            "name": "AVQ_CPT",
            "description": "Cotation dépendance AVQ, comportement",
            "type": "string",
            "nomenclature": "-",
            "length": null,
            "format": "default",
            "dateCreated": "2006",
            "dateDeleted": "2017",
            "dateMissing": [],
            "type_oracle": "string"
        },
        {
            "name": "AVQ_HAB",
            "description": "Cotation dépendance AVQ, habillage/toilette",
            "type": "string",
            "nomenclature": "-",
            "length": null,
            "format": "default",
            "dateCreated": "2006",
            "dateDeleted": "2017",
            "dateMissing": [],
            "type_oracle": "string"
        },
        {
            "name": "AVQ_LOC",
            "description": "Cotation dépendance AVQ, locomotion",
            "type": "string",
            "nomenclature": "-",
            "length": null,
            "format": "default",
            "dateCreated": "2006",
            "dateDeleted": "2017",
            "dateMissing": [],
            "type_oracle": "string"
        },
        {
            "name": "AVQ_REL",
            "description": "Cotation dépendance AVQ, relation",
            "type": "string",
            "nomenclature": "-",
            "length": null,
            "format": "default",
            "dateCreated": "2006",
            "dateDeleted": "2017",
            "dateMissing": [],
            "type_oracle": "string"
        },
        {
            "name": "BDI_COD",
            "description": "Code géographique",
            "type": "string",
            "nomenclature": "-",
            "length": null,
            "format": "default",
            "dateCreated": "2006",
            "dateDeleted": "2017",
            "dateMissing": [],
            "type_oracle": "string"
        },
        {
            "name": "BDI_DEP",
            "description": "Code département",
            "type": "string",
            "nomenclature": "-",
            "length": null,
            "format": "default",
            "dateCreated": "2006",
            "dateDeleted": "2017",
            "dateMissing": [],
            "type_oracle": "string"
        },
        {
            "name": "COD_CONF",
            "description": "Confirmation de codage",
            "type": "string",
            "nomenclature": "-",
            "length": null,
            "format": "default",
            "dateCreated": "2012",
            "dateDeleted": "2017",
            "dateMissing": [],
            "type_oracle": "string"
        },
        {
            "name": "COD_SEX",
            "description": "Sexe du patient",
            "type": "string",
            "nomenclature": "-",
            "length": null,
            "format": "default",
            "dateCreated": "2006",
            "dateDeleted": "2017",
            "dateMissing": [],
            "type_oracle": "string"
        },
        {
            "name": "DEP_COT",
            "description": "Cotation dépendance selon Karnofsky",
            "type": "string",
            "nomenclature": "-",
            "length": null,
            "format": "default",
            "dateCreated": "2006",
            "dateDeleted": "2017",
            "dateMissing": [],
            "type_oracle": "string"
        },
        {
            "name": "DGN_PAL",
            "description": "Diagnostic principal",
            "type": "string",
            "nomenclature": "MS_CIM_V",
            "length": null,
            "format": "default",
            "dateCreated": "2006",
            "dateDeleted": "2017",
            "dateMissing": [
                "2012",
                "2013"
            ],
            "type_oracle": "string"
        },
        {
            "name": "ENT_MOD",
            "description": "Mode d’entrée",
            "type": "string",
            "nomenclature": "MS_SOR_V",
            "length": null,
            "format": "default",
            "dateCreated": "2006",
            "dateDeleted": "2017",
            "dateMissing": [],
            "type_oracle": "string"
        },
        {
            "name": "ENT_PRV",
            "description": "Provenance",
            "type": "string",
            "nomenclature": "MS_PRV_V",
            "length": null,
            "format": "default",
            "dateCreated": "2006",
            "dateDeleted": "2017",
            "dateMissing": [],
            "type_oracle": "string"
        },
        {
            "name": "ETA_NUM_ESMS",
            "description": "Numéro FINESS EHPA",
            "type": "string",
            "nomenclature": "-",
            "length": null,
            "format": "default",
            "dateCreated": "",
            "dateDeleted": "",
            "dateMissing": [],
            "type_oracle": "string"
        },
        {
            "name": "ETA_NUM_EPMSI",
            "description": "N° FINESS e-PMSI",
            "type": "string",
            "nomenclature": "-",
            "length": null,
            "format": "default",
            "dateCreated": "",
            "dateDeleted": "",
            "dateMissing": [],
            "type_oracle": "string"
        },
        {
            "name": "ETA_NUM_GEO",
            "description": "Numéro FINESS géographique",
            "type": "string",
            "nomenclature": "-",
            "length": null,
            "format": "default",
            "dateCreated": "2006",
            "dateDeleted": "2017",
            "dateMissing": [
                "2007",
                "2008",
                "2009",
                "2010",
                "2011",
                "2012",
                "2013",
                "2014",
                "2015",
                "2016"
            ],
            "type_oracle": "string"
        },
        {
            "name": "FAC_NUM",
            "description": "N° séquentiel de facture",
            "type": "string",
            "nomenclature": "-",
            "length": null,
            "format": "default",
            "dateCreated": "2010",
            "dateDeleted": "2017",
            "dateMissing": [],
            "type_oracle": "string"
        },
        {
            "name": "FIN_ANN_SEQ",
            "description": "Année de la date de fin de la séquence",
            "type": "string",
            "nomenclature": "-",
            "length": null,
            "format": "default",
            "dateCreated": "2010",
            "dateDeleted": "2017",
            "dateMissing": [],
            "type_oracle": "string"
        },
        {
            "name": "FIN_MOI_SEQ",
            "description": "Mois de la date de fin de la séquence",
            "type": "string",
            "nomenclature": "-",
            "length": null,
            "format": "default",
            "dateCreated": "2010",
            "dateDeleted": "2017",
            "dateMissing": [],
            "type_oracle": "string"
        },
        {
            "name": "MOT_NFACT_AM",
            "description": "Motif de la non facturation à l'assurance maladie",
            "type": "string",
            "nomenclature": "-",
            "length": null,
            "format": "default",
            "dateCreated": "2010",
            "dateDeleted": "2017",
            "dateMissing": [],
            "type_oracle": "string"
        },
        {
            "name": "NBR_ACT",
            "description": "Nombre d'actes",
            "type": "number",
            "nomenclature": "-",
            "length": null,
            "format": "default",
            "dateCreated": "2010",
            "dateDeleted": "2017",
            "dateMissing": [],
            "type_oracle": "number"
        },
        {
            "name": "NBR_DGN",
            "description": "Nombre de diagnostics associés",
            "type": "number",
            "nomenclature": "-",
            "length": null,
            "format": "default",
            "dateCreated": "2010",
            "dateDeleted": "2017",
            "dateMissing": [],
            "type_oracle": "number"
        },
        {
            "name": "NBR_DGN_MPA",
            "description": "Nombre de diagnostics liés au MPA (n2)",
            "type": "number",
            "nomenclature": "-",
            "length": null,
            "format": "default",
            "dateCreated": "2012",
            "dateDeleted": "2017",
            "dateMissing": [],
            "type_oracle": "number"
        },
        {
            "name": "NBR_DGN_MPP",
            "description": "Nombre de diagnostics liés au MPP (n1)",
            "type": "number",
            "nomenclature": "-",
            "length": null,
            "format": "default",
            "dateCreated": "2012",
            "dateDeleted": "2017",
            "dateMissing": [],
            "type_oracle": "number"
        },
        {
            "name": "PAT_TYP_DOM",
            "description": "Type de lieu de domicile du patient",
            "type": "string",
            "nomenclature": "-",
            "length": null,
            "format": "default",
            "dateCreated": "2007",
            "dateDeleted": "2017",
            "dateMissing": [],
            "type_oracle": "string"
        },
        {
            "name": "PEC_ASS",
            "description": "Mode de prise en charge associé",
            "type": "string",
            "nomenclature": "-",
            "length": null,
            "format": "default",
            "dateCreated": "2006",
            "dateDeleted": "2017",
            "dateMissing": [],
            "type_oracle": "string"
        },
        {
            "name": "PEC_MOD_ASSO1",
            "description": "Mode de prise en charge associé documentaire 1",
            "type": "string",
            "nomenclature": "-",
            "length": null,
            "format": "default",
            "dateCreated": "2007",
            "dateDeleted": "2017",
            "dateMissing": [],
            "type_oracle": "string"
        },
        {
            "name": "PEC_MOD_ASSO2",
            "description": "Mode de prise en charge associé documentaire 2",
            "type": "string",
            "nomenclature": "-",
            "length": null,
            "format": "default",
            "dateCreated": "2007",
            "dateDeleted": "2017",
            "dateMissing": [],
            "type_oracle": "string"
        },
        {
            "name": "PEC_MOD_ASSO3",
            "description": "Mode de prise en charge associé documentaire 3",
            "type": "string",
            "nomenclature": "-",
            "length": null,
            "format": "default",
            "dateCreated": "2007",
            "dateDeleted": "2017",
            "dateMissing": [],
            "type_oracle": "string"
        },
        {
            "name": "PEC_MOD_ASSO4",
            "description": "Mode de prise en charge associé documentaire 4",
            "type": "string",
            "nomenclature": "-",
            "length": null,
            "format": "default",
            "dateCreated": "2007",
            "dateDeleted": "2017",
            "dateMissing": [],
            "type_oracle": "string"
        },
        {
            "name": "PEC_MOD_ASSO5",
            "description": "Mode de prise en charge associé documentaire 5",
            "type": "string",
            "nomenclature": "-",
            "length": null,
            "format": "default",
            "dateCreated": "2007",
            "dateDeleted": "2017",
            "dateMissing": [],
            "type_oracle": "string"
        },
        {
            "name": "PEC_PAL",
            "description": "Mode de prise en charge principal",
            "type": "string",
            "nomenclature": "-",
            "length": null,
            "format": "default",
            "dateCreated": "2006",
            "dateDeleted": "2017",
            "dateMissing": [],
            "type_oracle": "string"
        },
        {
            "name": "RAPSS_NUM",
            "description": "N° de version du format de RAPSS",
            "type": "string",
            "nomenclature": "-",
            "length": null,
            "format": "default",
            "dateCreated": "2006",
            "dateDeleted": "2017",
            "dateMissing": [],
            "type_oracle": "string"
        },
        {
            "name": "RHAD_NUM",
            "description": "N° séquentiel de séjour d'HAD",
            "type": "string",
            "nomenclature": "-",
            "length": null,
            "format": "default",
            "dateCreated": "2006",
            "dateDeleted": "2017",
            "dateMissing": [],
            "type_oracle": "string"
        },
        {
            "name": "SEJ_FACT_AM",
            "description": "Séjour facturable à l'assurance maladie",
            "type": "string",
            "nomenclature": "-",
            "length": null,
            "format": "default",
            "dateCreated": "2010",
            "dateDeleted": "2017",
            "dateMissing": [],
            "type_oracle": "string"
        },
        {
            "name": "SEJ_NBJ",
            "description": "Nombre de journées dans le séjour",
            "type": "number",
            "nomenclature": "-",
            "length": null,
            "format": "default",
            "dateCreated": "2006",
            "dateDeleted": "2017",
            "dateMissing": [],
            "type_oracle": "number"
        },
        {
            "name": "SEQ_DER",
            "description": "Dernière séquence",
            "type": "string",
            "nomenclature": "-",
            "length": null,
            "format": "default",
            "dateCreated": "2006",
            "dateDeleted": "2017",
            "dateMissing": [],
            "type_oracle": "string"
        },
        {
            "name": "SEQ_NBJ",
            "description": "Nombre de journées dans la séquence ",
            "type": "number",
            "nomenclature": "-",
            "length": null,
            "format": "default",
            "dateCreated": "2006",
            "dateDeleted": "2017",
            "dateMissing": [],
            "type_oracle": "number"
        },
        {
            "name": "SEQ_NUM",
            "description": "N° de la séquence dans le séjour",
            "type": "string",
            "nomenclature": "-",
            "length": null,
            "format": "default",
            "dateCreated": "2010",
            "dateDeleted": "2017",
            "dateMissing": [],
            "type_oracle": "string"
        },
        {
            "name": "SEQ_SEJ_NBJ",
            "description": "Nombre de journées entre le début de la séquence et la date d’entrée du séjour",
            "type": "number",
            "nomenclature": "-",
            "length": null,
            "format": "default",
            "dateCreated": "2006",
            "dateDeleted": "2017",
            "dateMissing": [],
            "type_oracle": "number"
        },
        {
            "name": "SOR_ANN",
            "description": "Année de la date de sortie du séjour",
            "type": "string",
            "nomenclature": "-",
            "length": null,
            "format": "default",
            "dateCreated": "2010",
            "dateDeleted": "2017",
            "dateMissing": [],
            "type_oracle": "string"
        },
        {
            "name": "SOR_ANN_SSEQ",
            "description": "Année de sortie de la sous-séquence",
            "type": "string",
            "nomenclature": "-",
            "length": null,
            "format": "default",
            "dateCreated": "2006",
            "dateDeleted": "2017",
            "dateMissing": [],
            "type_oracle": "string"
        },
        {
            "name": "SOR_DES",
            "description": "Destination",
            "type": "string",
            "nomenclature": "MS_PRV_V",
            "length": null,
            "format": "default",
            "dateCreated": "2006",
            "dateDeleted": "2017",
            "dateMissing": [],
            "type_oracle": "string"
        },
        {
            "name": "SOR_MOD",
            "description": "Mode de sortie",
            "type": "string",
            "nomenclature": "MS_SOR_V",
            "length": null,
            "format": "default",
            "dateCreated": "2006",
            "dateDeleted": "2017",
            "dateMissing": [],
            "type_oracle": "string"
        },
        {
            "name": "SOR_MOI",
            "description": "Mois de la date de sortie du séjour",
            "type": "string",
            "nomenclature": "-",
            "length": null,
            "format": "default",
            "dateCreated": "2010",
            "dateDeleted": "2017",
            "dateMissing": [],
            "type_oracle": "string"
        },
        {
            "name": "SOR_MOI_SSEQ",
            "description": "Mois de sortie de la sous-séquence",
            "type": "string",
            "nomenclature": "-",
            "length": null,
            "format": "default",
            "dateCreated": "2006",
            "dateDeleted": "2017",
            "dateMissing": [],
            "type_oracle": "string"
        },
        {
            "name": "SSEQ_NBJ",
            "description": "Nombre de journées de la sous-séquence",
            "type": "number",
            "nomenclature": "-",
            "length": null,
            "format": "default",
            "dateCreated": "2006",
            "dateDeleted": "2017",
            "dateMissing": [],
            "type_oracle": "number"
        },
        {
            "name": "SSEQ_NUM",
            "description": "Numéro de sous-séquence",
            "type": "string",
            "nomenclature": "-",
            "length": null,
            "format": "default",
            "dateCreated": "2006",
            "dateDeleted": "2017",
            "dateMissing": [],
            "type_oracle": "string"
        },
        {
            "name": "SSEQ_SEJ_DER",
            "description": "Dernière sous séquence du séjour",
            "type": "string",
            "nomenclature": "-",
            "length": null,
            "format": "default",
            "dateCreated": "2010",
            "dateDeleted": "2017",
            "dateMissing": [],
            "type_oracle": "string"
        },
        {
            "name": "SSEQ_SEQ_DER",
            "description": "Dernière sous-séquence de la séquence",
            "type": "string",
            "nomenclature": "-",
            "length": null,
            "format": "default",
            "dateCreated": "2006",
            "dateDeleted": "2017",
            "dateMissing": [],
            "type_oracle": "string"
        },
        {
            "name": "SSEQ_SEQ_NBJ",
            "description": "Nombre de journées entre le début de la sous-séquence et le début de la séquence",
            "type": "number",
            "nomenclature": "-",
            "length": null,
            "format": "default",
            "dateCreated": "2006",
            "dateDeleted": "2017",
            "dateMissing": [],
            "type_oracle": "number"
        }
    ],
    "name": "T_HADaa_nnB",
    "title": "Table des Résumés Anonyme Par Sous-Séquence (RAPSS)",
    "description": "Champ : Public et Privé",
    "produit": "PMSI HAD",
    "missingValues": [
        ""
    ],
    "primaryKey": [
        "ETA_NUM_EPMSI",
        "RHAD_NUM"
    ],
    "foreignKeys": [
        {
            "fields": "ETA_NUM_EPMSI",
            "reference": {
                "resource": "T_HADaa_nnE",
                "fields": "ETA_NUM"
            }
        },
        {
            "fields": "ETA_NUM_EPMSI",
            "reference": {
                "resource": "T_HADaa_nnEHPA",
                "fields": "ETA_NUM_EPMSI"
            }
        },
        {
            "fields": [
                "DGN_PAL"
            ],
            "reference": {
                "resource": "MS_CIM_V",
                "fields": [
                    "CIM_COD"
                ]
            },
            "description": "Nomenclature"
        },
        {
            "fields": [
                "ENT_MOD"
            ],
            "reference": {
                "resource": "MS_SOR_V",
                "fields": [
                    "SOR_MOD_COD"
                ]
            },
            "description": "Nomenclature"
        },
        {
            "fields": [
                "ENT_PRV"
            ],
            "reference": {
                "resource": "MS_PRV_V",
                "fields": [
                    "PRV_COD"
                ]
            },
            "description": "Nomenclature"
        },
        {
            "fields": [
                "SOR_DES"
            ],
            "reference": {
                "resource": "MS_PRV_V",
                "fields": [
                    "PRV_COD"
                ]
            },
            "description": "Nomenclature"
        },
        {
            "fields": [
                "SOR_MOD"
            ],
            "reference": {
                "resource": "MS_SOR_V",
                "fields": [
                    "SOR_MOD_COD"
                ]
            },
            "description": "Nomenclature"
        }
    ],
    "history": {
        "dateCreated": "2006",
        "dateDeleted": "2017",
        "dateMissing": []
    }
}