ARO_ASU_NAT,ARO_CPL_COD,ARO_ENV_TYP,ARO_FJH_TYP,ARO_FTA_COD,ARO_MIN_TAU,ARO_MOD_MNT,ARO_ORD_NUM,ARO_PRS_NAT,ARO_REM_BSE,ARO_REM_MNT,ARO_REM_PRU,ARO_REM_SGN,ARO_REM_TAU,ARO_REM_TYP,ARO_THE_TAU,ORG_CLE_NEW,DCT_ORD_NUM,FLX_DIS_DTD,FLX_EMT_NUM,FLX_EMT_ORD,FLX_EMT_TYP,FLX_TRT_DTD,ORG_CLE_NUM,PRS_ORD_NUM,REM_TYP_AFF
22,3,5,0,0,72224,747475121,77,6111,319843939,144975378,191066025076,0,39364,99,25.00,01C731032,6555954,24MAY1874:00:00:00,206,44627015,9746758,24MAY1874:00:00:00,01C731028,8249926,68193811
12,3,8,0,3,15127,234577324,65,6014,482889234,181681176,597077419223,0,87014,5,35.00,01C731223,10024164,21MAY1874:00:00:00,203,85015960,48222940,23MAY1874:00:00:00,01C731223,97495135,33173321
10,9,4,2,1,23577,678048973,70,6011,778891170,931504009,352495141152,9,88183,0,30.00,01C731223,34237947,26MAY1874:00:00:00,204,76998362,88283335,19MAY1874:00:00:00,01C731028,29634760,72379157
12,0,9,0,4,27541,590217879,10,6012,297134096,412682355,76544150784,1,49206,99,35.00,01C731028,86824804,20MAY1874:00:00:00,201,81878730,55290428,21MAY1874:00:00:00,01C731030,96713917,71911958
0,3,3,2,3,28404,502146411,15,5401,546864303,866290955,338216365403,1,41969,5,0.00,01C731222,10024164,19MAY1874:00:00:00,203,85015960,48222940,29MAY1874:00:00:00,01C731220,97495135,33173321
22,9,2,0,0,63385,984242383,99,5206,181819902,693216314,493000181446,2,40755,0,25.00,01C682674,11403760,27MAY1874:00:00:00,201,59396469,30404411,28MAY1874:00:00:00,01C731030,87175385,2545749
12,1,0,9,0,96417,361451317,72,6011,923101994,898182325,265189911676,0,82005,5,45.00,01C731030,34237947,26MAY1874:00:00:00,103,76998362,88283335,26MAY1874:00:00:00,01C731030,29634760,72379157
90,0,2,8,6,95322,635033657,17,6011,233180737,564424721,192163670291,2,78896,4,45.00,01C731033,76857369,20MAY1874:00:00:00,202,88354781,93105653,25MAY1874:00:00:00,01C682675,80032881,23839677
70,1,8,1,6,30757,315996544,34,5205,15228023,585894244,63999933605,1,23583,99,15.00,01C731032,45425806,28MAY1874:00:00:00,102,51516027,90460347,23MAY1874:00:00:00,01C731029,88679010,97916902
50,1,0,1,2,42964,853403487,33,5206,745796781,175849886,112450325176,2,57482,5,15.00,01C731033,10024164,25MAY1874:00:00:00,105,85015960,48222940,28MAY1874:00:00:00,01C731032,97495135,33173321
