{
    "fields": [
        {
            "name": "INV_ATR_DTD",
            "description": "Date d'attribution de la pension d'invalidité",
            "type": "date",
            "nomenclature": "IR_DTE_V",
            "length": "8",
            "format": "default",
            "dateCreated": "2006",
            "dateDeleted": "",
            "dateMissing": [],
            "type_oracle": "date"
        },
        {
            "name": "INV_PEN_CAT",
            "description": "Catégorie de la pension d'invalidité",
            "type": "integer",
            "nomenclature": "IR_CIV_V",
            "length": "2",
            "format": "default",
            "dateCreated": "2006",
            "dateDeleted": "",
            "dateMissing": [],
            "type_oracle": "number",
            "constraints": {
                "minimum": 0,
                "maximum": 100
            }
        },
        {
            "name": "INV_PEN_ETA",
            "description": "Etat de la pension d'invalidité",
            "type": "integer",
            "nomenclature": "IR_EIN_V",
            "length": "2",
            "format": "default",
            "dateCreated": "2006",
            "dateDeleted": "",
            "dateMissing": [],
            "type_oracle": "number",
            "constraints": {
                "minimum": 0,
                "maximum": 100
            }
        },
        {
            "name": "ORG_CLE_NEW",
            "description": "Organisme de liquidation (après fusion des caisses)",
            "type": "string",
            "nomenclature": "IR_ORG_V",
            "length": "9",
            "format": "default",
            "dateCreated": "2006",
            "dateDeleted": "",
            "dateMissing": [],
            "type_oracle": "string",
            "constraints": {
                "maximum": 9
            }
        },
        {
            "name": "DCT_ORD_NUM",
            "description": "N° ordre décompte dans caisse                      1",
            "type": "integer",
            "nomenclature": "-",
            "length": "8",
            "format": "default",
            "dateCreated": "2006",
            "dateDeleted": "",
            "dateMissing": [],
            "type_oracle": "number",
            "constraints": {
                "minimum": 0,
                "maximum": 100000000
            }
        },
        {
            "name": "FLX_DIS_DTD",
            "description": "Date de mise à disposition des données dans SI     2",
            "type": "date",
            "nomenclature": "IR_DTE_V",
            "length": "8",
            "format": "default",
            "dateCreated": "2006",
            "dateDeleted": "",
            "dateMissing": [],
            "type_oracle": "date"
        },
        {
            "name": "FLX_EMT_NUM",
            "description": "N° émetteur du flux                                                  3",
            "type": "integer",
            "nomenclature": "IR_NEM_V",
            "length": "8",
            "format": "default",
            "dateCreated": "2006",
            "dateDeleted": "",
            "dateMissing": [],
            "type_oracle": "number",
            "constraints": {
                "minimum": 0,
                "maximum": 100000000
            }
        },
        {
            "name": "FLX_EMT_ORD",
            "description": "N° séquence du flux                                               4",
            "type": "integer",
            "nomenclature": "-",
            "length": "8",
            "format": "default",
            "dateCreated": "2006",
            "dateDeleted": "",
            "dateMissing": [],
            "type_oracle": "number",
            "constraints": {
                "minimum": 0,
                "maximum": 100000000
            }
        },
        {
            "name": "FLX_EMT_TYP",
            "description": "Type d'émetteur                                                      5",
            "type": "integer",
            "nomenclature": "-",
            "length": "8",
            "format": "default",
            "dateCreated": "2006",
            "dateDeleted": "",
            "dateMissing": [],
            "type_oracle": "number",
            "constraints": {
                "minimum": 0,
                "maximum": 100000000
            }
        },
        {
            "name": "FLX_TRT_DTD",
            "description": "Date de traitement des données dans SI                   6",
            "type": "date",
            "nomenclature": "IR_DTE_V",
            "length": "8",
            "format": "default",
            "dateCreated": "2006",
            "dateDeleted": "",
            "dateMissing": [],
            "type_oracle": "date"
        },
        {
            "name": "ORG_CLE_NUM",
            "description": "Ancien concept de l'organisme de liquidation (avant fusion, jusqu’au jour J de la fusion)          7",
            "type": "string",
            "nomenclature": "IR_ORG_V",
            "length": "9",
            "format": "default",
            "dateCreated": "2006",
            "dateDeleted": "",
            "dateMissing": [],
            "type_oracle": "string",
            "constraints": {
                "maximum": 9
            }
        },
        {
            "name": "PRS_ORD_NUM",
            "description": "N° ordre prestation dans décompte                 8",
            "type": "integer",
            "nomenclature": "-",
            "length": "8",
            "format": "default",
            "dateCreated": "2006",
            "dateDeleted": "",
            "dateMissing": [],
            "type_oracle": "number",
            "constraints": {
                "minimum": 0,
                "maximum": 100000000
            }
        },
        {
            "name": "REM_TYP_AFF",
            "description": "Type de remboursement affiné                                 9",
            "type": "integer",
            "nomenclature": "-",
            "length": "8",
            "format": "default",
            "dateCreated": "2006",
            "dateDeleted": "",
            "dateMissing": [],
            "type_oracle": "number",
            "constraints": {
                "minimum": 0,
                "maximum": 100000000
            }
        }
    ],
    "name": "ER_INV_F",
    "title": "affinage des actes invalidité",
    "description": "",
    "produit": "DCIR",
    "missingValues": [
        ""
    ],
    "foreignKeys": [
        {
            "fields": [
                "DCT_ORD_NUM",
                "FLX_DIS_DTD",
                "FLX_EMT_NUM",
                "FLX_EMT_ORD",
                "FLX_EMT_TYP",
                "FLX_TRT_DTD",
                "ORG_CLE_NUM",
                "PRS_ORD_NUM",
                "REM_TYP_AFF"
            ],
            "reference": {
                "resource": "ER_PRS_F",
                "fields": [
                    "DCT_ORD_NUM",
                    "FLX_DIS_DTD",
                    "FLX_EMT_NUM",
                    "FLX_EMT_ORD",
                    "FLX_EMT_TYP",
                    "FLX_TRT_DTD",
                    "ORG_CLE_NUM",
                    "PRS_ORD_NUM",
                    "REM_TYP_AFF"
                ]
            }
        },
        {
            "fields": [
                "INV_ATR_DTD"
            ],
            "reference": {
                "resource": "IR_DTE_V",
                "fields": [
                    "DTE_DTE"
                ]
            },
            "description": "Nomenclature"
        },
        {
            "fields": [
                "INV_PEN_CAT"
            ],
            "reference": {
                "resource": "IR_CIV_V",
                "fields": [
                    "INV_PEN_CAT"
                ]
            },
            "description": "Nomenclature"
        },
        {
            "fields": [
                "INV_PEN_ETA"
            ],
            "reference": {
                "resource": "IR_EIN_V",
                "fields": [
                    "INV_PEN_ETA"
                ]
            },
            "description": "Nomenclature"
        },
        {
            "fields": [
                "ORG_CLE_NEW"
            ],
            "reference": {
                "resource": "IR_ORG_V",
                "fields": [
                    "ORG_NUM"
                ]
            },
            "description": "Nomenclature"
        },
        {
            "fields": [
                "FLX_DIS_DTD"
            ],
            "reference": {
                "resource": "IR_DTE_V",
                "fields": [
                    "DTE_DTE"
                ]
            },
            "description": "Nomenclature"
        },
        {
            "fields": [
                "FLX_EMT_NUM"
            ],
            "reference": {
                "resource": "IR_NEM_V",
                "fields": [
                    "EMT_NUM"
                ]
            },
            "description": "Nomenclature"
        },
        {
            "fields": [
                "FLX_TRT_DTD"
            ],
            "reference": {
                "resource": "IR_DTE_V",
                "fields": [
                    "DTE_DTE"
                ]
            },
            "description": "Nomenclature"
        },
        {
            "fields": [
                "ORG_CLE_NUM"
            ],
            "reference": {
                "resource": "IR_ORG_V",
                "fields": [
                    "ORG_NUM"
                ]
            },
            "description": "Nomenclature"
        }
    ],
    "history": {
        "dateCreated": "",
        "dateDeleted": "",
        "dateMissing": []
    }
}