ITR_ORD_NUM,ORG_CLE_NEW,TRS_ACP_NOM,TRS_ACP_NOMC,TRS_CDR_NOM,TRS_CDR_NOMC,TRS_ARR_CDP,TRS_DEP_CDP,TRS_TRP_HRA,TRS_TRP_HRD,TRS_VEH_NUM,TRS_VEH_NUMC,DCT_ORD_NUM,FLX_DIS_DTD,FLX_EMT_NUM,FLX_EMT_ORD,FLX_EMT_TYP,FLX_TRT_DTD,ORG_CLE_NUM,PRS_ORD_NUM,REM_TYP_AFF
426,01C731222,oXIvSJrfpuRxEOf,GJkJopq,AdxiUEcG,HDinVkEUqUGcwxTbVTD,tCJE,mj,2532,3023,mZsVZwAcmzCnqCsNmP,bDPTitf,6555954,22MAY1874:00:00:00,201,44627015,9746758,26MAY1874:00:00:00,01C682674,8249926,68193811
685,01C731221,SM,qxrwzSIbRtyhQNEalc,I,fRYJ,yZKCdMvUJmnfUF,Vl,399,3077,WteUplRMN,QgvtlLhHWPIkUxZ,10024164,19MAY1874:00:00:00,204,85015960,48222940,25MAY1874:00:00:00,01C731221,97495135,33173321
424,01C682675,ZrDamrBrSSoCNgBiILvn,,rXkpekOFCaEo,dQCjXWP,kxioUaaUbyRr,wU,3264,3151,,PgszKvvQiIXVMfGaCo,34237947,24MAY1874:00:00:00,106,76998362,88283335,26MAY1874:00:00:00,01C682675,29634760,72379157
501,01C731221,,hmxFJFhwXAClL,QzHH,WcRf,vfbEFBszxAJsDpwXynEJ,GuqcUIOOXyGBTzcoy,9451,2680,QRqgUGLE,npEOMOBHoQvoJHH,86824804,22MAY1874:00:00:00,206,81878730,55290428,27MAY1874:00:00:00,01C731222,96713917,71911958
182,01C682674,ERyIoUgZkPiYKZqvpA,rDLEEbouUAJLALHRf,STQBZKYMBl,AJvuqldmjpyI,zFuYBKixVBzA,NxamguptDA,9338,6840,DoNmNnND,AeEvPjsucVwAsUgZZI,10024164,23MAY1874:00:00:00,105,85015960,48222940,27MAY1874:00:00:00,01C682674,97495135,33173321
756,01C731222,aOeXxdhCQKbX,alhBYtODRAVQUkeQJ,WUlfh,giytpPzBspeeDVPotMy,JsiZTXTG,uiMzqAQftLgrqSVSSdTE,233,2769,eccFdcSXoiqsTHi,,11403760,28MAY1874:00:00:00,104,59396469,30404411,22MAY1874:00:00:00,01C682674,87175385,2545749
882,01C731221,ka,PuzDuAOyRKJv,oVkjZTjMKeCBJGnKX,ZqOEQIXSNKxmYfUqvy,SJlp,rdcmuwUQpJaZAFOOTTww,87,2935,gnAZQenxjiQ,hNwoccv,34237947,27MAY1874:00:00:00,102,76998362,88283335,19MAY1874:00:00:00,01C731028,29634760,72379157
908,01C731033,j,z,GajjQlJjtyVcDgVN,qZxMpd,nOuvuV,,2070,4517,PfFAdxZzxVH,,76857369,20MAY1874:00:00:00,104,88354781,93105653,26MAY1874:00:00:00,01C731028,80032881,23839677
453,01C731030,,IWHCEeurvsaYdJUMc,YR,,DEceCOYvVolcbatv,J,4452,9176,cntThOOgGJXykhSzWp,basolgjqWbXoZNTipT,45425806,24MAY1874:00:00:00,204,51516027,90460347,19MAY1874:00:00:00,01C731220,88679010,97916902
901,01C731029,wpdLGbVRl,dHXjELAHFXiDOknNUIA,xaJuxsu,yPcfKSLqdc,J,qGM,1465,5946,uVrxvjggpBiihxA,bnoQ,10024164,28MAY1874:00:00:00,102,85015960,48222940,26MAY1874:00:00:00,01C682674,97495135,33173321
