RHA_NUM,TYP_ART,RSF_TYP,NUM_FAC,DEL_DAT_ENT,ETA_NUM,PSH_MDT,PSH_DMT,EXO_TM,ACT_COD,ACT_NBR,ACT_COE,ACT_DNB,PRI_UNI,REM_BAS,REM_TAU,AMO_MNR,HON_MNT,AMC_MNR,NOE_MNR,NOE_OPE,SOIN_ANN,SOIN_MOI,EXE_SPE
AeEvPjsucVwAsUgZZI,haHoKysholbSI,tfFvqbAe,cz,-7730230562.127,s,TiItWYuZgJBjmkTGQ,Aw,oXIvSJrfpuRxEOf,GJkJopq,6462206814.1958,6933248144.2027,-1596340657.1845,-8137834266.5628,9683837010.8515,-8253007141.9565,-2697888339.5461,8480702311.4885,-3982533399.0676,6489389518.2656,kkwEGtaeDpklQOqlbh,fmfsysVqECeQQe,mzrIhRTnbONZZWO,oBHGsDvOoCCJs
bDPTitf,rLugGhNek,rBjdAcWVuSljeinYeNT,HHcIvWObTuYijJeZdsbL,9489661888.7291,jfwiPKtMQfUZX,dJisS,VZrJcdRWWG,SM,qxrwzSIbRtyhQNEalc,-9477640368.6027,1223310805.3007,-2735210060.6983,9433118399.7958,-3331754679.7069,-5390458008.9654,-975881682.1332,-6842588389.3042,-6261083673.1624,-6373005350.056,BDsMvpxat,BJxWNOB,gl,oRxiKSPhioZxVOwN
QgvtlLhHWPIkUxZ,ipqVXm,FONjBbpYsnT,geMw,4574692670.0221,s,sOqaKwPi,xBPbzpNiXUUyNwugrz,ZrDamrBrSSoCNgBiILvn,,-5784587201.3741,-902491951.8849,-6302466244.771,-322800390.7271,3474032493.3827,-1778778587.2217,-78793024.6442,7338301536.3159,-3536346460.6356,7546535364.1411,CixFPgt,hbvzkWaKNN,XztfosGJniIDmBqbwV,Jq
,LxwREvYVOEcoVDjNZZDI,G,XXwyt,-2970643882.146,HYPvDdkPCQiNgUSPvR,sKs,JmyFfdSSjWrFXetbaSI,,hmxFJFhwXAClL,2368435386.9922,-2956501726.1608,365654563.3495,-5149545970.0387,-6072191655.7095,-3784346028.7983,-8487558668.0973,-8316861182.7708,3314991405.7662,-8973853.0672,IgHayzEvTxeI,eURIImoG,tko,KkZIZ
bDPTitf,TMo,tgaIXNbdkzNOHQsrula,xulZRsHxThWKJTQTWeO,4152102765.1816,jfwiPKtMQfUZX,ohX,KpvDRoPMQHAPaef,ERyIoUgZkPiYKZqvpA,rDLEEbouUAJLALHRf,-8034310693.262,1717027682.6967,-9827890959.8246,622476596.1451,-2911070707.1795,1319117815.2301,1435231646.5544,1471473678.7526,1339416019.3843,9298528664.4536,qrgKXuzFdhYQw,RjhzvnsEBIW,GtqNBkjcdhihpTltxrCj,MmTKJxtpwo
npEOMOBHoQvoJHH,R,YfenN,Xxzepf,5992092033.2011,vqISFDWyhT,YIhYQuZuBAaXaBx,DQhDViUqyKKbNiXQ,aOeXxdhCQKbX,alhBYtODRAVQUkeQJ,2402626197.5372,714994885.4615,9378724134.3897,-4289115290.704,6267319063.6412,901274075.677,-4207319884.5208,-4361204662.7417,-2034920822.0247,-9929089063.8054,pzRYMcWXetisFbtXAlwv,lZgGIsXqZzOGL,vGt,rW
QgvtlLhHWPIkUxZ,lerPljEaeVsBSPNPhar,QS,hygjTYydiycyQmt,2911237090.1658,s,oLXPjkZHBrBKPzSkUKJK,qJHoAZbhCUbZqS,ka,PuzDuAOyRKJv,-8922195608.0311,6549125535.5869,6027625120.3292,7252607541.0328,-5043008929.7748,6141988856.6075,-3823910824.2315,-4874388843.7999,-2411701689.5081,8472886932.7677,AAxbbDpTWG,AxlkPxBltwoELNQqEfI,axyOAQautNRi,fExkYjIFzTKPOPFQsA
PgszKvvQiIXVMfGaCo,qiJieiuQC,uPTrzHyyXkeb,cJQpvNzsa,-1708007856.2367,SQxD,IkXmzrTBeMnwERccpf,fnhhSBcGcfB,j,z,9213081156.0848,-4709156025.5593,5146239772.1731,-9177996930.7825,-827773497.0757,8363102145.672,-2502476669.8956,1279608239.1663,-9788369282.4271,2588878264.6909,VWYRHoWxSJuhBWrMGJ,MuCWpehZMTBlpat,bgBVqxhPW,pisqYR
,xApSXFeoJirGSVrcGI,KodQDOLPZocoL,jeMZBPJOa,4120620225.4602,NKgkWdGhlybGJBzBgxj,GBXqemfKyicLpiKuOg,ioPWmTvRQ,,IWHCEeurvsaYdJUMc,9608587484.3015,-432418773.2257,3429686036.8365,-7833045320.9856,7546028429.9418,441815056.8735,6317133488.6203,-5603532963.6265,-6592687980.1258,-3914048900.013,RWYwqGUbiT,QwfUumbOn,,HRKofToSIWrYoEGPNMr
bDPTitf,okVojOSRVGCK,ycfQdpyVyDKx,oM,-5067012364.5072,jfwiPKtMQfUZX,iLDaAEomQ,gdeirEJSpXwovgHoeRff,wpdLGbVRl,dHXjELAHFXiDOknNUIA,422553005.4245,-3044299543.0856,-9406859823.5015,5343200908.5739,-2166830776.6518,-1506254772.2343,9376693874.1463,2972415991.652,-7532132586.3979,-3181498358.6673,ZHKDydChcqStKlzwK,QCdnrMrTMWPy,QayHjKwhnVMhkhGsAyV,Or
