SEQ_NUM,TYP_ART,RSF_TYP,NUM_FAC,SOR_ANN,SOR_MOI,DEL_DAT_ENT,ETA_NUM,PSH_MDT,PSH_DMT,EXO_TM,EXE_SPE,ACT_COD,ACT_NBR,ACT_COE,ACT_DNB,PRI_UNI,REM_BAS,REM_TAU,AMO_MNR,HON_MNT,AMC_MNR,ETA_NUM_GEO,TYP_UNI_FON_C,COEF_SSR
TMo,haHoKysholbSI,tfFvqbAe,cz,KvGzDJyBNqe,TiItWYuZgJBjmkTGQ,-3980710882.8817,s,oXIvSJrfpuRxEOf,GJkJopq,AdxiUEcG,HDinVkEUqUGcwxTbVTD,tCJE,-8137834266.5628,9683837010.8515,-8253007141.9565,-2697888339.5461,8480702311.4885,-3982533399.0676,6489389518.2656,-9324905791.5358,1078820450.0117,mzrIhRTnbONZZWO,oBHGsDvOoCCJs,-6914248437.3745
haHoKysholbSI,rLugGhNek,rBjdAcWVuSljeinYeNT,HHcIvWObTuYijJeZdsbL,HpwcpGC,dJisS,-5058763360.7637,jfwiPKtMQfUZX,SM,qxrwzSIbRtyhQNEalc,I,fRYJ,yZKCdMvUJmnfUF,9433118399.7958,-3331754679.7069,-5390458008.9654,-975881682.1332,-6842588389.3042,-6261083673.1624,-6373005350.056,-217849840.6883,-2075042125.8927,gl,oRxiKSPhioZxVOwN,-7326008785.9987
rLugGhNek,ipqVXm,FONjBbpYsnT,geMw,UgYcxiv,sOqaKwPi,8526702701.1835,s,ZrDamrBrSSoCNgBiILvn,,rXkpekOFCaEo,dQCjXWP,kxioUaaUbyRr,-322800390.7271,3474032493.3827,-1778778587.2217,-78793024.6442,7338301536.3159,-3536346460.6356,7546535364.1411,6921701945.6177,-9037464548.3985,XztfosGJniIDmBqbwV,Jq,-2746290676.4622
R,LxwREvYVOEcoVDjNZZDI,G,XXwyt,sMEnAwVXRh,sKs,7832068765.5553,HYPvDdkPCQiNgUSPvR,,hmxFJFhwXAClL,QzHH,WcRf,vfbEFBszxAJsDpwXynEJ,-5149545970.0387,-6072191655.7095,-3784346028.7983,-8487558668.0973,-8316861182.7708,3314991405.7662,-8973853.0672,-1771960003.8045,513451221.8571,tko,KkZIZ,3582177508.9126
haHoKysholbSI,TMo,tgaIXNbdkzNOHQsrula,xulZRsHxThWKJTQTWeO,yMUJqCnjoMFOhHzqZX,ohX,3665535199.4997,jfwiPKtMQfUZX,ERyIoUgZkPiYKZqvpA,rDLEEbouUAJLALHRf,STQBZKYMBl,AJvuqldmjpyI,zFuYBKixVBzA,622476596.1451,-2911070707.1795,1319117815.2301,1435231646.5544,1471473678.7526,1339416019.3843,9298528664.4536,2628307474.6153,-6939228363.7622,GtqNBkjcdhihpTltxrCj,MmTKJxtpwo,-6110998853.3226
LxwREvYVOEcoVDjNZZDI,R,YfenN,Xxzepf,bBEYliwpinKwulZgSKmU,YIhYQuZuBAaXaBx,1337693189.9934,vqISFDWyhT,aOeXxdhCQKbX,alhBYtODRAVQUkeQJ,WUlfh,giytpPzBspeeDVPotMy,JsiZTXTG,-4289115290.704,6267319063.6412,901274075.677,-4207319884.5208,-4361204662.7417,-2034920822.0247,-9929089063.8054,-4181135254.6773,203219.8831,vGt,rW,-4975792330.2601
rLugGhNek,lerPljEaeVsBSPNPhar,QS,hygjTYydiycyQmt,OjKdlevacIpSTDKN,oLXPjkZHBrBKPzSkUKJK,939317604.8606,s,ka,PuzDuAOyRKJv,oVkjZTjMKeCBJGnKX,ZqOEQIXSNKxmYfUqvy,SJlp,7252607541.0328,-5043008929.7748,6141988856.6075,-3823910824.2315,-4874388843.7999,-2411701689.5081,8472886932.7677,856005778.6042,-4878264405.677,axyOAQautNRi,fExkYjIFzTKPOPFQsA,5168327830.7121
ipqVXm,qiJieiuQC,uPTrzHyyXkeb,cJQpvNzsa,GJMWKtiwhvfAAKdKeFF,IkXmzrTBeMnwERccpf,-5791523280.2647,SQxD,j,z,GajjQlJjtyVcDgVN,qZxMpd,nOuvuV,-9177996930.7825,-827773497.0757,8363102145.672,-2502476669.8956,1279608239.1663,-9788369282.4271,2588878264.6909,-5436372401.9339,861863157.3902,bgBVqxhPW,pisqYR,1152371791.2471
qiJieiuQC,xApSXFeoJirGSVrcGI,KodQDOLPZocoL,jeMZBPJOa,,GBXqemfKyicLpiKuOg,5395089363.7087,NKgkWdGhlybGJBzBgxj,,IWHCEeurvsaYdJUMc,YR,,DEceCOYvVolcbatv,-7833045320.9856,7546028429.9418,441815056.8735,6317133488.6203,-5603532963.6265,-6592687980.1258,-3914048900.013,-5194473411.592,965322390.3694,,HRKofToSIWrYoEGPNMr,296058357.8867
haHoKysholbSI,okVojOSRVGCK,ycfQdpyVyDKx,oM,IgbRDDrORSSsXJQmcq,iLDaAEomQ,7924602019.1395,jfwiPKtMQfUZX,wpdLGbVRl,dHXjELAHFXiDOknNUIA,xaJuxsu,yPcfKSLqdc,J,5343200908.5739,-2166830776.6518,-1506254772.2343,9376693874.1463,2972415991.652,-7532132586.3979,-3181498358.6673,9069150541.2859,-5484225722.867,QayHjKwhnVMhkhGsAyV,Or,-644002753.578
