{
    "fields": [
        {
            "name": "RHA_NUM",
            "description": "N° Séquentiel du séjour",
            "type": "string",
            "nomenclature": "-",
            "length": null,
            "format": "default",
            "dateCreated": "2012",
            "dateDeleted": "2017",
            "dateMissing": [],
            "type_oracle": "string"
        },
        {
            "name": "TYP_ART",
            "description": "Type d'enregistrement (L)",
            "type": "string",
            "nomenclature": "-",
            "length": null,
            "format": "default",
            "dateCreated": "2012",
            "dateDeleted": "2017",
            "dateMissing": [],
            "type_oracle": "string"
        },
        {
            "name": "RSF_TYP",
            "description": "Type de format RSF (1=Ancien/2=Nouveau)",
            "type": "string",
            "nomenclature": "-",
            "length": null,
            "format": "default",
            "dateCreated": "2012",
            "dateDeleted": "2017",
            "dateMissing": [],
            "type_oracle": "string"
        },
        {
            "name": "NUM_FAC",
            "description": "N° Facture séquentiel",
            "type": "string",
            "nomenclature": "-",
            "length": null,
            "format": "default",
            "dateCreated": "2012",
            "dateDeleted": "2017",
            "dateMissing": [],
            "type_oracle": "string"
        },
        {
            "name": "ETA_NUM",
            "description": "N° FINESS d'inscription e-PMSI",
            "type": "string",
            "nomenclature": "-",
            "length": null,
            "format": "default",
            "dateCreated": "2012",
            "dateDeleted": "2017",
            "dateMissing": [],
            "type_oracle": "string"
        },
        {
            "name": "PSH_MDT",
            "description": "Mode de traitement",
            "type": "string",
            "nomenclature": "-",
            "length": null,
            "format": "default",
            "dateCreated": "2012",
            "dateDeleted": "2017",
            "dateMissing": [],
            "type_oracle": "string"
        },
        {
            "name": "PSH_DMT",
            "description": "Discipline de prestation (ex DMT)",
            "type": "string",
            "nomenclature": "-",
            "length": null,
            "format": "default",
            "dateCreated": "2012",
            "dateDeleted": "2017",
            "dateMissing": [],
            "type_oracle": "string"
        },
        {
            "name": "ANN_MOI",
            "description": "Mois et année",
            "type": "string",
            "nomenclature": "-",
            "length": null,
            "format": "default",
            "dateCreated": "2012",
            "dateDeleted": "2017",
            "dateMissing": [],
            "type_oracle": "string"
        },
        {
            "name": "DEL_DAT_ENT",
            "description": "délai par rapport à la date d'entrée",
            "type": "number",
            "nomenclature": "-",
            "length": null,
            "format": "default",
            "dateCreated": "2012",
            "dateDeleted": "2017",
            "dateMissing": [],
            "type_oracle": "number"
        },
        {
            "name": "ACT_NBR",
            "description": "Quantité acte",
            "type": "number",
            "nomenclature": "-",
            "length": null,
            "format": "default",
            "dateCreated": "2012",
            "dateDeleted": "2017",
            "dateMissing": [],
            "type_oracle": "number"
        },
        {
            "name": "NABM_COD",
            "description": "Code acte NABM",
            "type": "string",
            "nomenclature": "IR_BIO_R",
            "length": null,
            "format": "default",
            "dateCreated": "2012",
            "dateDeleted": "2017",
            "dateMissing": [],
            "type_oracle": "string"
        }
    ],
    "name": "T_SSRaa_nnFL",
    "title": "OQN actes de biologie (issus de la NABM)",
    "description": "Champ : Privé",
    "produit": "PMSI SSR",
    "missingValues": [
        ""
    ],
    "foreignKeys": [
        {
            "fields": [
                "ETA_NUM",
                "RHA_NUM"
            ],
            "reference": {
                "resource": "T_SSRaa_nnB",
                "fields": [
                    "ETA_NUM",
                    "RHA_NUM"
                ]
            }
        },
        {
            "fields": [
                "NABM_COD"
            ],
            "reference": {
                "resource": "IR_BIO_R",
                "fields": [
                    "BIO_PRS_IDE"
                ]
            },
            "description": "Nomenclature"
        }
    ],
    "history": {
        "dateCreated": "2012",
        "dateDeleted": "2017",
        "dateMissing": []
    }
}