{
    "fields": [
        {
            "name": "CPT_DEP_PER",
            "description": "Période comptable",
            "type": "string",
            "nomenclature": "IR_PCT_V",
            "length": "6",
            "format": "default",
            "dateCreated": "",
            "dateDeleted": "",
            "dateMissing": [],
            "type_oracle": "string"
        },
        {
            "name": "CPT_EXC_RTC",
            "description": "Exercice de rattachement",
            "type": "number",
            "nomenclature": "-",
            "length": "4",
            "format": "default",
            "dateCreated": "",
            "dateDeleted": "",
            "dateMissing": [],
            "type_oracle": "number"
        },
        {
            "name": "CPT_MIR_NUM",
            "description": "N° compte MIRCOSS",
            "type": "string",
            "nomenclature": "-",
            "length": "20",
            "format": "default",
            "dateCreated": "",
            "dateDeleted": "",
            "dateMissing": [],
            "type_oracle": "string"
        },
        {
            "name": "CPT_MVT_MNT",
            "description": "Montant (signé) du mouvement comptable",
            "type": "number",
            "nomenclature": "-",
            "length": "9",
            "format": "default",
            "dateCreated": "",
            "dateDeleted": "",
            "dateMissing": [],
            "type_oracle": "number"
        },
        {
            "name": "CPT_MVT_SGN",
            "description": "Signe du mouvement comptable",
            "type": "number",
            "nomenclature": "-",
            "length": "1",
            "format": "default",
            "dateCreated": "",
            "dateDeleted": "",
            "dateMissing": [],
            "type_oracle": "number"
        },
        {
            "name": "CPT_MVT_SNS",
            "description": "Sens du mouvement comptable",
            "type": "string",
            "nomenclature": "IR_SNS_V",
            "length": "1",
            "format": "default",
            "dateCreated": "",
            "dateDeleted": "",
            "dateMissing": [],
            "type_oracle": "string"
        },
        {
            "name": "CPT_ORD_NUM",
            "description": "N° ordre ventilation comptable",
            "type": "number",
            "nomenclature": "-",
            "length": "2",
            "format": "default",
            "dateCreated": "",
            "dateDeleted": "",
            "dateMissing": [],
            "type_oracle": "number"
        },
        {
            "name": "CPT_TRM_RGM",
            "description": "N° de compte régime",
            "type": "string",
            "nomenclature": "-",
            "length": "20",
            "format": "default",
            "dateCreated": "",
            "dateDeleted": "",
            "dateMissing": [],
            "type_oracle": "string"
        },
        {
            "name": "CPT_VEN_TYP",
            "description": "Type de ventilation comptable",
            "type": "number",
            "nomenclature": "-",
            "length": "2",
            "format": "default",
            "dateCreated": "",
            "dateDeleted": "",
            "dateMissing": [],
            "type_oracle": "number"
        },
        {
            "name": "GES_CPT_COD",
            "description": "Code gestion comptable mnemonique",
            "type": "string",
            "nomenclature": "-",
            "length": "5",
            "format": "default",
            "dateCreated": "",
            "dateDeleted": "",
            "dateMissing": [],
            "type_oracle": "string"
        },
        {
            "name": "GES_GRG_COD",
            "description": "Grand régime de gestion comptable",
            "type": "number",
            "nomenclature": "-",
            "length": "2",
            "format": "default",
            "dateCreated": "",
            "dateDeleted": "",
            "dateMissing": [],
            "type_oracle": "number"
        },
        {
            "name": "ORG_CLE_NEW",
            "description": "Organisme de liquidation (après fusion des caisses)",
            "type": "string",
            "nomenclature": "IR_ORG_V",
            "length": "9",
            "format": "default",
            "dateCreated": "",
            "dateDeleted": "",
            "dateMissing": [],
            "type_oracle": "string"
        },
        {
            "name": "DCT_ORD_NUM",
            "description": "N° ordre décompte dans caisse                      1",
            "type": "number",
            "nomenclature": "-",
            "length": "8",
            "format": "default",
            "dateCreated": "",
            "dateDeleted": "",
            "dateMissing": [],
            "type_oracle": "number"
        },
        {
            "name": "FLX_DIS_DTD",
            "description": "Date de mise à disposition des données dans SI     2",
            "type": "date",
            "nomenclature": "IR_DTE_V",
            "length": "8",
            "format": "default",
            "dateCreated": "",
            "dateDeleted": "",
            "dateMissing": [],
            "type_oracle": "date"
        },
        {
            "name": "FLX_EMT_NUM",
            "description": "N° émetteur du flux                                                  3",
            "type": "number",
            "nomenclature": "IR_NEM_V",
            "length": "8",
            "format": "default",
            "dateCreated": "",
            "dateDeleted": "",
            "dateMissing": [],
            "type_oracle": "number"
        },
        {
            "name": "FLX_EMT_ORD",
            "description": "N° séquence du flux                                               4",
            "type": "number",
            "nomenclature": "-",
            "length": "8",
            "format": "default",
            "dateCreated": "",
            "dateDeleted": "",
            "dateMissing": [],
            "type_oracle": "number"
        },
        {
            "name": "FLX_EMT_TYP",
            "description": "Type d'émetteur                                                      5",
            "type": "number",
            "nomenclature": "-",
            "length": "8",
            "format": "default",
            "dateCreated": "",
            "dateDeleted": "",
            "dateMissing": [],
            "type_oracle": "number"
        },
        {
            "name": "FLX_TRT_DTD",
            "description": "Date de traitement des données dans SI                   6",
            "type": "date",
            "nomenclature": "IR_DTE_V",
            "length": "8",
            "format": "default",
            "dateCreated": "",
            "dateDeleted": "",
            "dateMissing": [],
            "type_oracle": "date"
        },
        {
            "name": "ORG_CLE_NUM",
            "description": "Ancien concept de l'organisme de liquidation (avant fusion, jusqu’au jour J de la fusion)          7",
            "type": "string",
            "nomenclature": "IR_ORG_V",
            "length": "9",
            "format": "default",
            "dateCreated": "",
            "dateDeleted": "",
            "dateMissing": [],
            "type_oracle": "string"
        },
        {
            "name": "PRS_ORD_NUM",
            "description": "N° ordre prestation dans décompte                 8",
            "type": "number",
            "nomenclature": "-",
            "length": "8",
            "format": "default",
            "dateCreated": "",
            "dateDeleted": "",
            "dateMissing": [],
            "type_oracle": "number"
        },
        {
            "name": "REM_TYP_AFF",
            "description": "Type de remboursement affiné                                 9",
            "type": "number",
            "nomenclature": "-",
            "length": "8",
            "format": "default",
            "dateCreated": "",
            "dateDeleted": "",
            "dateMissing": [],
            "type_oracle": "number"
        }
    ],
    "name": "ER_CPT_F",
    "title": "Données comptables",
    "description": "",
    "produit": "DCIR",
    "missingValues": [
        ""
    ],
    "foreignKeys": [
        {
            "fields": [
                "DCT_ORD_NUM",
                "FLX_DIS_DTD",
                "FLX_EMT_NUM",
                "FLX_EMT_ORD",
                "FLX_EMT_TYP",
                "FLX_TRT_DTD",
                "ORG_CLE_NUM",
                "PRS_ORD_NUM",
                "REM_TYP_AFF"
            ],
            "reference": {
                "resource": "ER_PRS_F",
                "fields": [
                    "DCT_ORD_NUM",
                    "FLX_DIS_DTD",
                    "FLX_EMT_NUM",
                    "FLX_EMT_ORD",
                    "FLX_EMT_TYP",
                    "FLX_TRT_DTD",
                    "ORG_CLE_NUM",
                    "PRS_ORD_NUM",
                    "REM_TYP_AFF"
                ]
            }
        }
    ],
    "history": {
        "dateCreated": "",
        "dateDeleted": "",
        "dateMissing": []
    }
}