{
    "fields": [
        {
            "name": "CLE_DCI_JNT",
            "description": "Clé technique de jointure",
            "type": "string",
            "nomenclature": "-",
            "length": null,
            "format": "default",
            "dateCreated": "",
            "dateDeleted": "",
            "dateMissing": [],
            "type_oracle": "string"
        },
        {
            "name": "BEN_IDT_ANO",
            "description": "Identifiant bénéficiaire anonymisé",
            "type": "string",
            "nomenclature": "-",
            "length": "18",
            "format": "default",
            "dateCreated": "",
            "dateDeleted": "",
            "dateMissing": [],
            "type_oracle": "string",
            "constraints": {
                "maximum": 18
            }
        },
        {
            "name": "BEN_IDT_TOP",
            "description": "Top identifiant bénéficiaire Anonymisé",
            "type": "integer",
            "nomenclature": "-",
            "length": "1",
            "format": "default",
            "dateCreated": "",
            "dateDeleted": "",
            "dateMissing": [],
            "type_oracle": "number",
            "constraints": {
                "minimum": 0,
                "maximum": 10
            }
        },
        {
            "name": "EXE_SOI_DTD",
            "description": "Date de début d'exécution des soins",
            "type": "date",
            "nomenclature": "IR_DTE_V",
            "length": null,
            "format": "default",
            "dateCreated": "",
            "dateDeleted": "",
            "dateMissing": [],
            "type_oracle": "date"
        },
        {
            "name": "EXE_SOI_DTF",
            "description": "Date de fin d'exécution des soins",
            "type": "date",
            "nomenclature": "IR_DTE_V",
            "length": null,
            "format": "default",
            "dateCreated": "",
            "dateDeleted": "",
            "dateMissing": [],
            "type_oracle": "date"
        },
        {
            "name": "EXE_SOI_AMD",
            "description": "Date (année et mois) de début d'exécution des soins",
            "type": "string",
            "nomenclature": "-",
            "length": "6",
            "format": "default",
            "dateCreated": "",
            "dateDeleted": "",
            "dateMissing": [],
            "type_oracle": "string",
            "constraints": {
                "maximum": 6
            }
        },
        {
            "name": "EXE_SOI_AMF",
            "description": "Date (année et mois) de fin d'exécution des soins",
            "type": "string",
            "nomenclature": "-",
            "length": "6",
            "format": "default",
            "dateCreated": "",
            "dateDeleted": "",
            "dateMissing": [],
            "type_oracle": "string",
            "constraints": {
                "maximum": 6
            }
        },
        {
            "name": "PFS_EXE_NUM",
            "description": "N° du professionnel de santé exécutant",
            "type": "string",
            "nomenclature": "-",
            "length": "8",
            "format": "default",
            "dateCreated": "",
            "dateDeleted": "",
            "dateMissing": [],
            "type_oracle": "string",
            "constraints": {
                "maximum": 8
            }
        },
        {
            "name": "PFS_PRE_NUM",
            "description": "N° du professionnel de santé prescripteur",
            "type": "string",
            "nomenclature": "-",
            "length": "8",
            "format": "default",
            "dateCreated": "",
            "dateDeleted": "",
            "dateMissing": [],
            "type_oracle": "string",
            "constraints": {
                "maximum": 8
            }
        },
        {
            "name": "GRG_LIQ_COD",
            "description": "Code du grand régime de liquidation",
            "type": "string",
            "nomenclature": "-",
            "length": "3",
            "format": "default",
            "dateCreated": "",
            "dateDeleted": "",
            "dateMissing": [],
            "type_oracle": "string",
            "constraints": {
                "maximum": 3
            }
        },
        {
            "name": "CAI_LIQ_COD",
            "description": "Code de la caisse de liquidation",
            "type": "string",
            "nomenclature": "-",
            "length": "3",
            "format": "default",
            "dateCreated": "",
            "dateDeleted": "",
            "dateMissing": [],
            "type_oracle": "string",
            "constraints": {
                "maximum": 3
            }
        },
        {
            "name": "PRS_NAT_REF",
            "description": "Code de la prestation de référence",
            "type": "integer",
            "nomenclature": "IR_NAT_V",
            "length": "4",
            "format": "default",
            "dateCreated": "",
            "dateDeleted": "",
            "dateMissing": [],
            "type_oracle": "number",
            "constraints": {
                "minimum": 0,
                "maximum": 10000
            }
        },
        {
            "name": "ETB_PRE_FIN",
            "description": "N° FINESS de l'établissement prescripteur",
            "type": "string",
            "nomenclature": "-",
            "length": "8",
            "format": "default",
            "dateCreated": "",
            "dateDeleted": "",
            "dateMissing": [],
            "type_oracle": "string",
            "constraints": {
                "maximum": 8
            }
        },
        {
            "name": "ETB_EXE_FIN",
            "description": "N° FINESS de l'établissement exécutant",
            "type": "string",
            "nomenclature": "-",
            "length": "8",
            "format": "default",
            "dateCreated": "",
            "dateDeleted": "",
            "dateMissing": [],
            "type_oracle": "string",
            "constraints": {
                "maximum": 8
            }
        },
        {
            "name": "RGO_REM_TAU",
            "description": "Taux de remboursement (part Régime Obligatoire)",
            "type": "number",
            "nomenclature": "-",
            "length": "5,2",
            "format": "default",
            "dateCreated": "",
            "dateDeleted": "",
            "dateMissing": [],
            "type_oracle": "number",
            "constraints": {
                "minimum": 0,
                "maximum": 100000,
                "decimals": 2
            }
        },
        {
            "name": "GRG_AFF_COD",
            "description": "Code du grand régime d'affiliation",
            "type": "string",
            "nomenclature": "-",
            "length": "3",
            "format": "default",
            "dateCreated": "",
            "dateDeleted": "",
            "dateMissing": [],
            "type_oracle": "string",
            "constraints": {
                "maximum": 3
            }
        },
        {
            "name": "CAI_AFF_COD",
            "description": "Code de la caisse d'affiliation",
            "type": "string",
            "nomenclature": "-",
            "length": "3",
            "format": "default",
            "dateCreated": "",
            "dateDeleted": "",
            "dateMissing": [],
            "type_oracle": "string",
            "constraints": {
                "maximum": 3
            }
        },
        {
            "name": "SLM_AFF_COD",
            "description": "Code de la SLM",
            "type": "string",
            "nomenclature": "-",
            "length": "3",
            "format": "default",
            "dateCreated": "",
            "dateDeleted": "",
            "dateMissing": [],
            "type_oracle": "string",
            "constraints": {
                "maximum": 3
            }
        },
        {
            "name": "FLX_TRT_DTD",
            "description": "Date d'entrée des données dans le système d'information",
            "type": "date",
            "nomenclature": "IR_DTE_V",
            "length": null,
            "format": "default",
            "dateCreated": "",
            "dateDeleted": "",
            "dateMissing": [],
            "type_oracle": "date"
        },
        {
            "name": "FLX_DIS_DTD",
            "description": "Date de mise à disposition des données",
            "type": "date",
            "nomenclature": "IR_DTE_V",
            "length": null,
            "format": "default",
            "dateCreated": "",
            "dateDeleted": "",
            "dateMissing": [],
            "type_oracle": "date"
        },
        {
            "name": "FLX_EMT_TYP",
            "description": "Type d'émetteur",
            "type": "integer",
            "nomenclature": "-",
            "length": "2",
            "format": "default",
            "dateCreated": "",
            "dateDeleted": "",
            "dateMissing": [],
            "type_oracle": "number",
            "constraints": {
                "minimum": 0,
                "maximum": 100
            }
        },
        {
            "name": "EXE_INS_DPT",
            "description": "Département du professionnel de santé exécutant",
            "type": "string",
            "nomenclature": "-",
            "length": "3",
            "format": "default",
            "dateCreated": "",
            "dateDeleted": "",
            "dateMissing": [],
            "type_oracle": "string",
            "constraints": {
                "maximum": 3
            }
        },
        {
            "name": "PRE_INS_DPT",
            "description": "Département du professionnel de santé prescripteur",
            "type": "string",
            "nomenclature": "-",
            "length": "3",
            "format": "default",
            "dateCreated": "",
            "dateDeleted": "",
            "dateMissing": [],
            "type_oracle": "string",
            "constraints": {
                "maximum": 3
            }
        },
        {
            "name": "ETE_DPT_COD",
            "description": "Département de l'établissement exécutant",
            "type": "string",
            "nomenclature": "-",
            "length": "3",
            "format": "default",
            "dateCreated": "",
            "dateDeleted": "",
            "dateMissing": [],
            "type_oracle": "string",
            "constraints": {
                "maximum": 3
            }
        },
        {
            "name": "ETP_DPT_COD",
            "description": "Departement de l'établissement prescripteur",
            "type": "string",
            "nomenclature": "-",
            "length": "3",
            "format": "default",
            "dateCreated": "",
            "dateDeleted": "",
            "dateMissing": [],
            "type_oracle": "string",
            "constraints": {
                "maximum": 3
            }
        },
        {
            "name": "BEN_RES_DPT",
            "description": "Département de résidence du bénéficiaire",
            "type": "string",
            "nomenclature": "IR_DPT_V",
            "length": "3",
            "format": "default",
            "dateCreated": "",
            "dateDeleted": "",
            "dateMissing": [],
            "type_oracle": "string",
            "constraints": {
                "maximum": 3
            }
        },
        {
            "name": "CAM_SEQ_NUM",
            "description": "Numéro séquentiel",
            "type": "integer",
            "nomenclature": "-",
            "length": "8",
            "format": "default",
            "dateCreated": "",
            "dateDeleted": "",
            "dateMissing": [],
            "type_oracle": "number",
            "constraints": {
                "minimum": 0,
                "maximum": 100000000
            }
        },
        {
            "name": "CAM_PRS_IDE",
            "description": "Code CCAM de l'acte médical",
            "type": "string",
            "nomenclature": "IR_CCAM_V54",
            "length": "13",
            "format": "default",
            "dateCreated": "",
            "dateDeleted": "",
            "dateMissing": [],
            "type_oracle": "string",
            "constraints": {
                "maximum": 13
            }
        },
        {
            "name": "CAM_ACT_COD",
            "description": "Code activite",
            "type": "string",
            "nomenclature": "-",
            "length": "1",
            "format": "default",
            "dateCreated": "",
            "dateDeleted": "",
            "dateMissing": [],
            "type_oracle": "string",
            "constraints": {
                "maximum": 1
            }
        },
        {
            "name": "CAM_ACT_PRU",
            "description": "Prix unitaire CCAM de l'acte médical",
            "type": "number",
            "nomenclature": "-",
            "length": "7,2",
            "format": "default",
            "dateCreated": "",
            "dateDeleted": "",
            "dateMissing": [],
            "type_oracle": "number",
            "constraints": {
                "minimum": 0,
                "maximum": 10000000,
                "decimals": 2
            }
        },
        {
            "name": "CAM_ASS_COD",
            "description": "Code association",
            "type": "string",
            "nomenclature": "-",
            "length": "1",
            "format": "default",
            "dateCreated": "",
            "dateDeleted": "",
            "dateMissing": [],
            "type_oracle": "string",
            "constraints": {
                "maximum": 1
            }
        },
        {
            "name": "CAM_DOC_EXT",
            "description": "Extension documentaire",
            "type": "string",
            "nomenclature": "-",
            "length": "1",
            "format": "default",
            "dateCreated": "",
            "dateDeleted": "",
            "dateMissing": [],
            "type_oracle": "string",
            "constraints": {
                "maximum": 1
            }
        },
        {
            "name": "CAM_MOD_COD",
            "description": "Codes modificateurs",
            "type": "string",
            "nomenclature": "-",
            "length": "4",
            "format": "default",
            "dateCreated": "",
            "dateDeleted": "",
            "dateMissing": [],
            "type_oracle": "string",
            "constraints": {
                "maximum": 4
            }
        },
        {
            "name": "CAM_REM_COD",
            "description": "Code remboursement exceptionnel",
            "type": "string",
            "nomenclature": "-",
            "length": "1",
            "format": "default",
            "dateCreated": "",
            "dateDeleted": "",
            "dateMissing": [],
            "type_oracle": "string",
            "constraints": {
                "maximum": 1
            }
        },
        {
            "name": "CAM_TRT_PHA",
            "description": "Phase de traitement",
            "type": "integer",
            "nomenclature": "-",
            "length": "1",
            "format": "default",
            "dateCreated": "",
            "dateDeleted": "",
            "dateMissing": [],
            "type_oracle": "number",
            "constraints": {
                "minimum": 0,
                "maximum": 10
            }
        },
        {
            "name": "CAM_QUA_DEN",
            "description": "Localisation dentaire",
            "type": "string",
            "nomenclature": "-",
            "length": "32",
            "format": "default",
            "dateCreated": "",
            "dateDeleted": "",
            "dateMissing": [],
            "type_oracle": "string",
            "constraints": {
                "maximum": 32
            }
        },
        {
            "name": "CAM_REM_BSE",
            "description": "Base de remboursement de la CCAM",
            "type": "number",
            "nomenclature": "-",
            "length": "7,2",
            "format": "default",
            "dateCreated": "",
            "dateDeleted": "",
            "dateMissing": [],
            "type_oracle": "number",
            "constraints": {
                "minimum": 0,
                "maximum": 10000000,
                "decimals": 2
            }
        },
        {
            "name": "CAM_GRI_TAR",
            "description": "Grille tarifaire",
            "type": "string",
            "nomenclature": "-",
            "length": "3",
            "format": "default",
            "dateCreated": "",
            "dateDeleted": "",
            "dateMissing": [],
            "type_oracle": "string",
            "constraints": {
                "maximum": 3
            }
        },
        {
            "name": "CAM_ACT_QSN",
            "description": "Quantité d'actes CCAM",
            "type": "integer",
            "nomenclature": "-",
            "length": "5",
            "format": "default",
            "dateCreated": "",
            "dateDeleted": "",
            "dateMissing": [],
            "type_oracle": "number",
            "constraints": {
                "minimum": 0,
                "maximum": 100000
            }
        }
    ],
    "name": "NS_CAM_F",
    "title": "affinage des actes médicaux (codage CCAM)",
    "description": "",
    "produit": "DCIRS",
    "missingValues": [
        ""
    ],
    "foreignKeys": [
        {
            "fields": [
                "CLE_DCI_JNT"
            ],
            "reference": {
                "resource": "NS_PRS_F",
                "fields": [
                    "CLE_DCI_JNT"
                ]
            }
        },
        {
            "fields": [
                "BEN_IDT_ANO"
            ],
            "reference": {
                "resource": "IR_IBA_R",
                "fields": [
                    "BEN_IDT_ANO"
                ]
            }
        },
        {
            "fields": [
                "EXE_SOI_DTD"
            ],
            "reference": {
                "resource": "IR_DTE_V",
                "fields": [
                    "DTE_DTE"
                ]
            },
            "description": "Nomenclature"
        },
        {
            "fields": [
                "EXE_SOI_DTF"
            ],
            "reference": {
                "resource": "IR_DTE_V",
                "fields": [
                    "DTE_DTE"
                ]
            },
            "description": "Nomenclature"
        },
        {
            "fields": [
                "PRS_NAT_REF"
            ],
            "reference": {
                "resource": "IR_NAT_V",
                "fields": [
                    "PRS_NAT"
                ]
            },
            "description": "Nomenclature"
        },
        {
            "fields": [
                "FLX_TRT_DTD"
            ],
            "reference": {
                "resource": "IR_DTE_V",
                "fields": [
                    "DTE_DTE"
                ]
            },
            "description": "Nomenclature"
        },
        {
            "fields": [
                "FLX_DIS_DTD"
            ],
            "reference": {
                "resource": "IR_DTE_V",
                "fields": [
                    "DTE_DTE"
                ]
            },
            "description": "Nomenclature"
        },
        {
            "fields": [
                "BEN_RES_DPT"
            ],
            "reference": {
                "resource": "IR_DPT_V",
                "fields": [
                    "GEO_DPT_COD"
                ]
            },
            "description": "Nomenclature"
        },
        {
            "fields": [
                "CAM_PRS_IDE"
            ],
            "reference": {
                "resource": "IR_CCAM_V54",
                "fields": [
                    "CAM_PRS_IDE_COD"
                ]
            },
            "description": "Nomenclature"
        }
    ],
    "history": {
        "dateCreated": "",
        "dateDeleted": "",
        "dateMissing": []
    }
}