CLE_DCI_JNT,BEN_IDT_ANO,BEN_IDT_TOP,EXE_SOI_DTD,EXE_SOI_DTF,EXE_SOI_AMD,EXE_SOI_AMF,PFS_EXE_NUM,PFS_PRE_NUM,GRG_LIQ_COD,CAI_LIQ_COD,PRS_NAT_REF,ETB_PRE_FIN,ETB_EXE_FIN,RGO_REM_TAU,GRG_AFF_COD,CAI_AFF_COD,SLM_AFF_COD,FLX_TRT_DTD,FLX_DIS_DTD,FLX_EMT_TYP,EXE_INS_DPT,PRE_INS_DPT,ETE_DPT_COD,ETP_DPT_COD,BEN_RES_DPT,RAT_SEQ_NUM,BEN_RAT_ANO,ATT_NAT,RAT_IPP_TAU,RAT_IPP_DTE
QNgLpDStMmSNQEpdi,cz,9,22MAY1874:00:00:00,24MAY1874:00:00:00,tCJE,mj,tgAvExXqPTePHoNaI,x,mZsVZwAcmzCnqCsNmP,bDPTitf,6013,ojvqEDZKs,uZubwzwJSlFensZ,3375.47,fmfsysVqECeQQe,mzrIhRTnbONZZWO,oBHGsDvOoCCJs,19MAY1874:00:00:00,29MAY1874:00:00:00,20,hX,qhvMpRUBSVCGLE,g,DsS,000,39169965,MY,1,64268.99,24MAY1874:00:00:00
,Xxzepf,5,19MAY1874:00:00:00,27MAY1874:00:00:00,yZKCdMvUJmnfUF,Vl,JmN,EMyzBbusMVkoybHOxG,WteUplRMN,QgvtlLhHWPIkUxZ,6012,tJMiAkYRajNGZMLYUOYd,Uszs,48910.75,BJxWNOB,gl,oRxiKSPhioZxVOwN,22MAY1874:00:00:00,27MAY1874:00:00:00,60,lNrAPBcFsQrcnM,CXamHB,ewMuY,QAjRMgnZRT,000,49818635,RtMiISSNTxV,0,53862.09,26MAY1874:00:00:00
sFpUBteEbrJBZMtbvtwi,cz,5,24MAY1874:00:00:00,23MAY1874:00:00:00,kxioUaaUbyRr,wU,QiTey,pHCDoKQGAaOBbzrnxC,,PgszKvvQiIXVMfGaCo,6013,ZhUPuHyfGbfgxJfPcF,IAOaldqloYNWxTxAOiE,84608.51,hbvzkWaKNN,XztfosGJniIDmBqbwV,Jq,20MAY1874:00:00:00,24MAY1874:00:00:00,51,HxaS,hmyajsKfEOLYwWjBMS,sujAejjCZJmAznHJCt,WFibCgwFqscfXh,001,29807671,sX,1,51189.8,25MAY1874:00:00:00
AspaWxTnb,Xxzepf,6,22MAY1874:00:00:00,29MAY1874:00:00:00,vfbEFBszxAJsDpwXynEJ,GuqcUIOOXyGBTzcoy,FOJV,,QRqgUGLE,npEOMOBHoQvoJHH,6014,,F,41140.2,eURIImoG,tko,KkZIZ,23MAY1874:00:00:00,25MAY1874:00:00:00,77,RMkCZBkicaMaMpwQwybJ,qLXDpZJKEyD,ZjrOSfE,mNhw,004,83306024,OLUwoFpuAxbFxwqr,0,61025.72,26MAY1874:00:00:00
,xulZRsHxThWKJTQTWeO,4,23MAY1874:00:00:00,22MAY1874:00:00:00,zFuYBKixVBzA,NxamguptDA,GNRJamFExxgHKRyaxY,dApTBraRQTkRqki,DoNmNnND,AeEvPjsucVwAsUgZZI,6014,GoBZfiJchJEHAq,mgzBFize,63141.54,RjhzvnsEBIW,GtqNBkjcdhihpTltxrCj,MmTKJxtpwo,19MAY1874:00:00:00,23MAY1874:00:00:00,79,FpeCyaDGXjsp,eKrwZnLYMhEhtRlwYq,Vh,gFrBIzXjM,006,48092690,FdCt,9,49298.9,19MAY1874:00:00:00
YEfHW,cz,0,28MAY1874:00:00:00,21MAY1874:00:00:00,JsiZTXTG,uiMzqAQftLgrqSVSSdTE,GbsM,CfkWIylCJJlbTkgMkI,eccFdcSXoiqsTHi,,5301,svqpFEWoOUvvafpvaV,nCDGTelgkZW,29094.32,lZgGIsXqZzOGL,vGt,rW,19MAY1874:00:00:00,21MAY1874:00:00:00,90,hpNeGRiD,SZApvR,rPOIOmEFQPrj,QdnhBTqdiqdQYfVhKD,005,57031903,tDvtPzJSohFqdYffE,1,21446.2,24MAY1874:00:00:00
sFpUBteEbrJBZMtbvtwi,Xxzepf,8,27MAY1874:00:00:00,19MAY1874:00:00:00,SJlp,rdcmuwUQpJaZAFOOTTww,L,JSwyzyEuVRnlxzmvzVMA,gnAZQenxjiQ,hNwoccv,5204,IeDgSbP,glqujukzejFpD,54280.03,AxlkPxBltwoELNQqEfI,axyOAQautNRi,fExkYjIFzTKPOPFQsA,25MAY1874:00:00:00,24MAY1874:00:00:00,21,StkNWjDraCdWGYowGhZj,bWqNEhrCpRqhv,TCYyZxRfKGBFihSwd,gupAbRMIQcMfdWEApe,006,44272353,RChNpunmVw,2,24398.0,29MAY1874:00:00:00
SClmmbcR,cJQpvNzsa,10,20MAY1874:00:00:00,21MAY1874:00:00:00,nOuvuV,,dzGpMYETO,S,PfFAdxZzxVH,,6013,zzxCLBOQsbJJtXlxBJ,UYBHRDYLPyorB,22818.14,MuCWpehZMTBlpat,bgBVqxhPW,pisqYR,25MAY1874:00:00:00,24MAY1874:00:00:00,51,vEStKRzbJNCtpR,Nr,MWChJUYWfmvJzkL,qFXwMMIoIAjt,006,57257296,OEbykASSHUKtGrlEvQX,9,57209.45,29MAY1874:00:00:00
DNyYwswoEFMKVFrPNLId,geMw,9,24MAY1874:00:00:00,27MAY1874:00:00:00,DEceCOYvVolcbatv,J,QcqITciKOYcgGFRSjHb,OnaUC,cntThOOgGJXykhSzWp,basolgjqWbXoZNTipT,5204,WjcakgClLnOVQiv,CERSJuirXsI,24027.63,QwfUumbOn,,HRKofToSIWrYoEGPNMr,21MAY1874:00:00:00,20MAY1874:00:00:00,74,vAGFedAzeVYOWDpQdR,vUw,XYdpfksXFNqG,iRQvQXTpCVi,005,30325498,hcAg,9,77262.87,22MAY1874:00:00:00
,geMw,10,28MAY1874:00:00:00,19MAY1874:00:00:00,J,qGM,mhsXfgMpPgmT,cQzJzbb,uVrxvjggpBiihxA,bnoQ,6013,iMKgjAVc,XGj,95345.75,QCdnrMrTMWPy,QayHjKwhnVMhkhGsAyV,Or,19MAY1874:00:00:00,21MAY1874:00:00:00,77,,gDBjFcxNktgeCxWvjuU,VtKsJaJtyzgKhIx,dlVPrBfemDNsGaOgeIFc,002,44155814,KHZQUrhcnam,9,31062.8,22MAY1874:00:00:00
