{
    "fields": [
        {
            "name": "ETA_NUM_EPMSI",
            "description": "N° FINESS e-PMSI",
            "type": "string",
            "nomenclature": "-",
            "length": "9",
            "format": "default",
            "dateCreated": "2007",
            "dateDeleted": "",
            "dateMissing": [],
            "observation": "",
            "regle_gestion": "",
            "type_oracle": "string"
        },
        {
            "name": "ETA_NUM_TWO",
            "description": "Second n° FINESS",
            "type": "string",
            "nomenclature": "-",
            "length": "9",
            "format": "default",
            "dateCreated": "2007",
            "dateDeleted": "",
            "dateMissing": [],
            "observation": "",
            "regle_gestion": "",
            "type_oracle": "string"
        },
        {
            "name": "IPP_IRR_CRY",
            "description": "Cryptage irreversible de l'IPP",
            "type": "string",
            "nomenclature": "-",
            "length": "16",
            "format": "default",
            "dateCreated": "2007",
            "dateDeleted": "",
            "dateMissing": [],
            "observation": "",
            "regle_gestion": "",
            "type_oracle": "string"
        },
        {
            "name": "SEJ_IDT",
            "description": "Identifiant de séjour",
            "type": "string",
            "nomenclature": "-",
            "length": "5",
            "format": "default",
            "dateCreated": "2011",
            "dateDeleted": "",
            "dateMissing": [],
            "observation": "",
            "regle_gestion": "",
            "type_oracle": "string"
        },
        {
            "name": "RIP_NUM",
            "description": "N° séquentiel de séjour",
            "type": "string",
            "nomenclature": "-",
            "length": "6",
            "format": "default",
            "dateCreated": "2007",
            "dateDeleted": "",
            "dateMissing": [],
            "observation": "",
            "regle_gestion": "",
            "type_oracle": "string"
        },
        {
            "name": "SEQ_SEQ_NUM",
            "description": "N° séquentiel de séquence au sein du séjour",
            "type": "string",
            "nomenclature": "-",
            "length": "3",
            "format": "default",
            "dateCreated": "2007",
            "dateDeleted": "",
            "dateMissing": [],
            "observation": "",
            "regle_gestion": "",
            "type_oracle": "string"
        },
        {
            "name": "ASS_DGN",
            "description": "Diagnostics et facteurs associés",
            "type": "string",
            "nomenclature": "MS_CIM_V",
            "length": "6",
            "format": "default",
            "dateCreated": "2007",
            "dateDeleted": "",
            "dateMissing": [],
            "observation": "",
            "regle_gestion": "",
            "type_oracle": "string"
        }
    ],
    "name": "T_RIPaa_nnRSAD",
    "title": "Diagnostic associé à la séquence",
    "produit": "PMSI RIM-P",
    "missingValues": [
        ""
    ],
    "foreignKeys": [
        {
            "fields": [
                "ETA_NUM_EPMSI",
                "RIP_NUM"
            ],
            "reference": {
                "resource": "T_RIPaa_nnFB",
                "fields": [
                    "ETA_NUM_EPMSI",
                    "RIP_NUM"
                ]
            }
        }
    ],
    "history": {
        "dateCreated": "2007",
        "dateDeleted": "",
        "dateMissing": []
    },
    "champ": "Public et Privé",
    "observation": ""
}