{
  "fields": [
    {
      "name": "BEN_RES_REG",
      "type": "integer",
      "format": "default",
      "role": "code"
    },
    {
      "name": "BEN_RES_LIB",
      "type": "string",
      "format": "default",
      "role": "label"
    }
  ],
  "missingValues": [],
  "name": "BEN_RES_REG",
  "primaryKey": "BEN_RES_REG"
}
