{
  "fields": [
    {
      "name": "PSP_ACT_CAT",
      "type": "integer",
      "format": "default",
      "role": "code"
    },
    {
      "name": "PSP_ACT_LIB",
      "type": "string",
      "format": "default",
      "role": "label"
    }
  ],
  "missingValues": [],
  "name": "PSP_ACT_CAT",
  "primaryKey": "PSP_ACT_CAT"
}
