{
  "fields": [
    {
      "name": "PSP_SPE_SNDS",
      "type": "integer",
      "format": "default",
      "role": "code"
    },
    {
      "name": "PSP_SPE_LIB",
      "type": "string",
      "format": "default",
      "role": "label"
    }
  ],
  "missingValues": [],
  "name": "PSP_SPE_SNDS",
  "primaryKey": "PSP_SPE_SNDS"
}
