ANN,ANN_IVG_PREC,ETA_NUM,ETA_NUM_ENT,MOI,NBR_IVG_ANT,NBR_NAIS_ANT,PRS_TYP,RSA_NUM,SOR_ANN,SOR_MOI
haHoKysholbSI,tfFvqbAe,haHoKysholbSI,cz,KvGzDJyBNqe,-9650194581.3769,-3980710882.8817,oXIvSJrfpuRxEOf,XQYCvKUMsKHwwCwRCjmd,GJkJopq,AdxiUEcG
rLugGhNek,rBjdAcWVuSljeinYeNT,TMo,HHcIvWObTuYijJeZdsbL,HpwcpGC,7831465343.6052,-5058763360.7637,SM,lL,qxrwzSIbRtyhQNEalc,I
ipqVXm,FONjBbpYsnT,haHoKysholbSI,geMw,UgYcxiv,-4302776650.5216,8526702701.1835,ZrDamrBrSSoCNgBiILvn,DDZVMDmYqxCp,,rXkpekOFCaEo
LxwREvYVOEcoVDjNZZDI,G,LxwREvYVOEcoVDjNZZDI,XXwyt,sMEnAwVXRh,-4020472450.8208,7832068765.5553,,,hmxFJFhwXAClL,QzHH
TMo,tgaIXNbdkzNOHQsrula,TMo,xulZRsHxThWKJTQTWeO,yMUJqCnjoMFOhHzqZX,5840685213.1086,3665535199.4997,ERyIoUgZkPiYKZqvpA,lL,rDLEEbouUAJLALHRf,STQBZKYMBl
R,YfenN,R,Xxzepf,bBEYliwpinKwulZgSKmU,-3510588050.4354,1337693189.9934,aOeXxdhCQKbX,IB,alhBYtODRAVQUkeQJ,WUlfh
lerPljEaeVsBSPNPhar,QS,haHoKysholbSI,hygjTYydiycyQmt,OjKdlevacIpSTDKN,7294207733.8052,939317604.8606,ka,DDZVMDmYqxCp,PuzDuAOyRKJv,oVkjZTjMKeCBJGnKX
qiJieiuQC,uPTrzHyyXkeb,rLugGhNek,cJQpvNzsa,GJMWKtiwhvfAAKdKeFF,-1049747355.7225,-5791523280.2647,j,YPQBllyUSXvJ,z,GajjQlJjtyVcDgVN
xApSXFeoJirGSVrcGI,KodQDOLPZocoL,ipqVXm,jeMZBPJOa,,964598127.0019,5395089363.7087,,OUKHSSPqQlondBM,IWHCEeurvsaYdJUMc,YR
okVojOSRVGCK,ycfQdpyVyDKx,TMo,oM,IgbRDDrORSSsXJQmcq,-2856560103.4002,7924602019.1395,wpdLGbVRl,lL,dHXjELAHFXiDOknNUIA,xaJuxsu
