ACH_PRI,COD_UCD,COE_TAU,DEL_DAT_ENT,ENT_ANN,ENT_MOI,ETA_NUM,FAC_TOT,MNT_UNI_ECA,NUM_FAC,QUA_COD,RSA_NUM,RSF_TYP,TOT_MNT_ECA,TYP_ART,UCD_UCD_COD,COD_LES
5676647016.115,0000009232315,-7730230562.127,-9650194581.3769,Aw,oXIvSJrfpuRxEOf,haHoKysholbSI,3514628310.071,6462206814.1958,HDinVkEUqUGcwxTbVTD,-1596340657.1845,XQYCvKUMsKHwwCwRCjmd,mj,9683837010.8515,x,0000009232143,mZsVZwAcmzCnqCsNmP
2696674121.0546,0000009232143,9489661888.7291,7831465343.6052,VZrJcdRWWG,SM,TMo,-9105756355.9411,-9477640368.6027,fRYJ,-2735210060.6983,lL,Vl,-3331754679.7069,EMyzBbusMVkoybHOxG,0000009231824,WteUplRMN
-5019138169.685,0000009232120,4574692670.0221,-4302776650.5216,xBPbzpNiXUUyNwugrz,ZrDamrBrSSoCNgBiILvn,haHoKysholbSI,-3133926549.1482,-5784587201.3741,dQCjXWP,-6302466244.771,DDZVMDmYqxCp,wU,3474032493.3827,pHCDoKQGAaOBbzrnxC,0000009233214,
5161517292.9964,0000009232143,-2970643882.146,-4020472450.8208,JmyFfdSSjWrFXetbaSI,,LxwREvYVOEcoVDjNZZDI,2880394540.3966,2368435386.9922,WcRf,365654563.3495,,GuqcUIOOXyGBTzcoy,-6072191655.7095,,0000009232143,QRqgUGLE
-3738461287.3664,0000009231824,4152102765.1816,5840685213.1086,KpvDRoPMQHAPaef,ERyIoUgZkPiYKZqvpA,TMo,-4315740025.1942,-8034310693.262,AJvuqldmjpyI,-9827890959.8246,lL,NxamguptDA,-2911070707.1795,dApTBraRQTkRqki,0000009232315,DoNmNnND
8744747149.768,0000009232315,5992092033.2011,-3510588050.4354,DQhDViUqyKKbNiXQ,aOeXxdhCQKbX,R,8986756133.0001,2402626197.5372,giytpPzBspeeDVPotMy,9378724134.3897,IB,uiMzqAQftLgrqSVSSdTE,6267319063.6412,CfkWIylCJJlbTkgMkI,0000009234225,eccFdcSXoiqsTHi
-9142691032.9547,0000009232143,2911237090.1658,7294207733.8052,qJHoAZbhCUbZqS,ka,haHoKysholbSI,-6846596624.5247,-8922195608.0311,ZqOEQIXSNKxmYfUqvy,6027625120.3292,DDZVMDmYqxCp,rdcmuwUQpJaZAFOOTTww,-5043008929.7748,JSwyzyEuVRnlxzmvzVMA,0000009234047,gnAZQenxjiQ
-1182655931.4039,0000009234254,-1708007856.2367,-1049747355.7225,fnhhSBcGcfB,j,rLugGhNek,-2240540751.5448,9213081156.0848,qZxMpd,5146239772.1731,YPQBllyUSXvJ,,-827773497.0757,S,0000009232120,PfFAdxZzxVH
8254445798.704,0000009234047,4120620225.4602,964598127.0019,ioPWmTvRQ,,ipqVXm,1799873529.4463,9608587484.3015,,3429686036.8365,OUKHSSPqQlondBM,J,7546028429.9418,OnaUC,0000009233214,cntThOOgGJXykhSzWp
-899921621.4644,0000009233680,-5067012364.5072,-2856560103.4002,gdeirEJSpXwovgHoeRff,wpdLGbVRl,TMo,-244084173.7432,422553005.4245,yPcfKSLqdc,-9406859823.5015,lL,qGM,-2166830776.6518,cQzJzbb,0000009234225,uVrxvjggpBiihxA
