ACT_COD,ACT_COE,ACT_NBR,AMC_MNR,AMO_MNR,DEL_DAT_ENT,ETA_NUM,ETE_GHS_NUM,EXO_TM,FAC_MNT,FJ_COD_PEC,GHS_NUM,MCO_COE,NOE_MNR,NOE_OPE,NUM_FAC,PRI_UNI,PSH_DMT,PSH_MDT,REM_BAS,REM_TAU,RSA_NUM,RSF_TYP,SOR_ANN,SOR_MOI,TYP_ART,TYP_FPI
haHoKysholbSI,9780230269.512,5676647016.115,-7730230562.127,-9650194581.3769,-3980710882.8817,haHoKysholbSI,-107967089.2396,GJkJopq,6462206814.1958,HDinVkEUqUGcwxTbVTD,tCJE,-8137834266.5628,9683837010.8515,x,mZsVZwAcmzCnqCsNmP,8480702311.4885,ojvqEDZKs,uZubwzwJSlFensZ,-9324905791.5358,1078820450.0117,XQYCvKUMsKHwwCwRCjmd,mzrIhRTnbONZZWO,oBHGsDvOoCCJs,Bt,hX,qhvMpRUBSVCGLE
rLugGhNek,990894536.8945,2696674121.0546,9489661888.7291,7831465343.6052,-5058763360.7637,TMo,-5438337911.0133,qxrwzSIbRtyhQNEalc,-9477640368.6027,fRYJ,yZKCdMvUJmnfUF,9433118399.7958,-3331754679.7069,EMyzBbusMVkoybHOxG,WteUplRMN,-6842588389.3042,tJMiAkYRajNGZMLYUOYd,Uszs,-217849840.6883,-2075042125.8927,lL,gl,oRxiKSPhioZxVOwN,iTHqJDgslFYeVY,lNrAPBcFsQrcnM,CXamHB
ipqVXm,-4371053960.8987,-5019138169.685,4574692670.0221,-4302776650.5216,8526702701.1835,haHoKysholbSI,-4890521524.8558,,-5784587201.3741,dQCjXWP,kxioUaaUbyRr,-322800390.7271,3474032493.3827,pHCDoKQGAaOBbzrnxC,,7338301536.3159,ZhUPuHyfGbfgxJfPcF,IAOaldqloYNWxTxAOiE,6921701945.6177,-9037464548.3985,DDZVMDmYqxCp,XztfosGJniIDmBqbwV,Jq,,HxaS,hmyajsKfEOLYwWjBMS
LxwREvYVOEcoVDjNZZDI,-8454208678.4165,5161517292.9964,-2970643882.146,-4020472450.8208,7832068765.5553,LxwREvYVOEcoVDjNZZDI,-2073401805.5445,hmxFJFhwXAClL,2368435386.9922,WcRf,vfbEFBszxAJsDpwXynEJ,-5149545970.0387,-6072191655.7095,,QRqgUGLE,-8316861182.7708,,F,-1771960003.8045,513451221.8571,,tko,KkZIZ,uDSNnQ,RMkCZBkicaMaMpwQwybJ,qLXDpZJKEyD
TMo,-1110610080.5639,-3738461287.3664,4152102765.1816,5840685213.1086,3665535199.4997,TMo,-2453698046.1775,rDLEEbouUAJLALHRf,-8034310693.262,AJvuqldmjpyI,zFuYBKixVBzA,622476596.1451,-2911070707.1795,dApTBraRQTkRqki,DoNmNnND,1471473678.7526,GoBZfiJchJEHAq,mgzBFize,2628307474.6153,-6939228363.7622,lL,GtqNBkjcdhihpTltxrCj,MmTKJxtpwo,mW,FpeCyaDGXjsp,eKrwZnLYMhEhtRlwYq
R,-543840604.8903,8744747149.768,5992092033.2011,-3510588050.4354,1337693189.9934,R,9931484603.093,alhBYtODRAVQUkeQJ,2402626197.5372,giytpPzBspeeDVPotMy,JsiZTXTG,-4289115290.704,6267319063.6412,CfkWIylCJJlbTkgMkI,eccFdcSXoiqsTHi,-4361204662.7417,svqpFEWoOUvvafpvaV,nCDGTelgkZW,-4181135254.6773,203219.8831,IB,vGt,rW,NzewftzYrhb,hpNeGRiD,SZApvR
lerPljEaeVsBSPNPhar,-9029559981.8711,-9142691032.9547,2911237090.1658,7294207733.8052,939317604.8606,haHoKysholbSI,-1836055993.3361,PuzDuAOyRKJv,-8922195608.0311,ZqOEQIXSNKxmYfUqvy,SJlp,7252607541.0328,-5043008929.7748,JSwyzyEuVRnlxzmvzVMA,gnAZQenxjiQ,-4874388843.7999,IeDgSbP,glqujukzejFpD,856005778.6042,-4878264405.677,DDZVMDmYqxCp,axyOAQautNRi,fExkYjIFzTKPOPFQsA,nuxlaYxZEU,StkNWjDraCdWGYowGhZj,bWqNEhrCpRqhv
qiJieiuQC,-6733511035.8347,-1182655931.4039,-1708007856.2367,-1049747355.7225,-5791523280.2647,rLugGhNek,5437879896.7943,z,9213081156.0848,qZxMpd,nOuvuV,-9177996930.7825,-827773497.0757,S,PfFAdxZzxVH,1279608239.1663,zzxCLBOQsbJJtXlxBJ,UYBHRDYLPyorB,-5436372401.9339,861863157.3902,YPQBllyUSXvJ,bgBVqxhPW,pisqYR,lvZxbHjhkXgszdObVvX,vEStKRzbJNCtpR,Nr
xApSXFeoJirGSVrcGI,-7680985770.0411,8254445798.704,4120620225.4602,964598127.0019,5395089363.7087,ipqVXm,5210733760.1777,IWHCEeurvsaYdJUMc,9608587484.3015,,DEceCOYvVolcbatv,-7833045320.9856,7546028429.9418,OnaUC,cntThOOgGJXykhSzWp,-5603532963.6265,WjcakgClLnOVQiv,CERSJuirXsI,-5194473411.592,965322390.3694,OUKHSSPqQlondBM,,HRKofToSIWrYoEGPNMr,rAnfBMTqwng,vAGFedAzeVYOWDpQdR,vUw
okVojOSRVGCK,2547833654.0885,-899921621.4644,-5067012364.5072,-2856560103.4002,7924602019.1395,TMo,-3799813026.2934,dHXjELAHFXiDOknNUIA,422553005.4245,yPcfKSLqdc,J,5343200908.5739,-2166830776.6518,cQzJzbb,uVrxvjggpBiihxA,2972415991.652,iMKgjAVc,XGj,9069150541.2859,-5484225722.867,lL,QayHjKwhnVMhkhGsAyV,Or,zWL,,gDBjFcxNktgeCxWvjuU
