ACV_ACT,ANP_ACT,CCAM_COD,DEL_DAT_ENT,DENT_NUM_1,DENT_NUM_10,DENT_NUM_11,DENT_NUM_12,DENT_NUM_13,DENT_NUM_14,DENT_NUM_15,DENT_NUM_16,DENT_NUM_2,DENT_NUM_3,DENT_NUM_4,DENT_NUM_5,DENT_NUM_6,DENT_NUM_7,DENT_NUM_8,DENT_NUM_9,DOC_ACT,ETA_NUM,ETA_NUM_GEO,MOD_ACT1,MOD_ACT2,MOD_ACT3,MOD_ACT4,NUM_FAC,PHA_ACT,PSH_DMT,PSH_MDT,REM_EXP_ACT,RSF_TYP,SEQ_NUM,SOR_ANN,SOR_MOI,TYP_ART
tfFvqbAe,cz,AHQB024,-7730230562.127,TiItWYuZgJBjmkTGQ,Aw,oXIvSJrfpuRxEOf,GJkJopq,AdxiUEcG,HDinVkEUqUGcwxTbVTD,tCJE,mj,tgAvExXqPTePHoNaI,x,mZsVZwAcmzCnqCsNmP,bDPTitf,ojvqEDZKs,uZubwzwJSlFensZ,kkwEGtaeDpklQOqlbh,fmfsysVqECeQQe,mzrIhRTnbONZZWO,haHoKysholbSI,oBHGsDvOoCCJs,Bt,hX,qhvMpRUBSVCGLE,g,DsS,fjZmWNqGqa,MY,EhDLltKG,CZtuZwCDlhrnhHuhrGk,LQRcDGSREUwXRB,RsKQpPhDnHs,dDWCtmpAyts,pJEushmm,qVQtgU
rBjdAcWVuSljeinYeNT,HHcIvWObTuYijJeZdsbL,AHQB025,9489661888.7291,dJisS,VZrJcdRWWG,SM,qxrwzSIbRtyhQNEalc,I,fRYJ,yZKCdMvUJmnfUF,Vl,JmN,EMyzBbusMVkoybHOxG,WteUplRMN,QgvtlLhHWPIkUxZ,tJMiAkYRajNGZMLYUOYd,Uszs,BDsMvpxat,BJxWNOB,gl,TMo,oRxiKSPhioZxVOwN,iTHqJDgslFYeVY,lNrAPBcFsQrcnM,CXamHB,ewMuY,QAjRMgnZRT,byjLkmPwPWiMwc,RtMiISSNTxV,,dTnKV,,LQRcDGSREUwXRB,,JmflvlyuhqXYIEG,SIayEp
FONjBbpYsnT,geMw,AHQP002,4574692670.0221,sOqaKwPi,xBPbzpNiXUUyNwugrz,ZrDamrBrSSoCNgBiILvn,,rXkpekOFCaEo,dQCjXWP,kxioUaaUbyRr,wU,QiTey,pHCDoKQGAaOBbzrnxC,,PgszKvvQiIXVMfGaCo,ZhUPuHyfGbfgxJfPcF,IAOaldqloYNWxTxAOiE,CixFPgt,hbvzkWaKNN,XztfosGJniIDmBqbwV,haHoKysholbSI,Jq,,HxaS,hmyajsKfEOLYwWjBMS,sujAejjCZJmAznHJCt,WFibCgwFqscfXh,wpzggbne,sX,AJwFbAXB,zKS,KDmjMiFtRImR,,DQbOLIpVeyMYv,rYYDffKggI,XsMXxDnlPxSAHjglmjWd
G,XXwyt,AHQB025,-2970643882.146,sKs,JmyFfdSSjWrFXetbaSI,,hmxFJFhwXAClL,QzHH,WcRf,vfbEFBszxAJsDpwXynEJ,GuqcUIOOXyGBTzcoy,FOJV,,QRqgUGLE,npEOMOBHoQvoJHH,,F,IgHayzEvTxeI,eURIImoG,tko,LxwREvYVOEcoVDjNZZDI,KkZIZ,uDSNnQ,RMkCZBkicaMaMpwQwybJ,qLXDpZJKEyD,ZjrOSfE,mNhw,nCNKngtkE,OLUwoFpuAxbFxwqr,drinroTZbZwZsT,SMkl,Ah,TBqhJaruJCVlFzVFw,FFZNMl,zZEiXKV,
tgaIXNbdkzNOHQsrula,xulZRsHxThWKJTQTWeO,AHQP001,4152102765.1816,ohX,KpvDRoPMQHAPaef,ERyIoUgZkPiYKZqvpA,rDLEEbouUAJLALHRf,STQBZKYMBl,AJvuqldmjpyI,zFuYBKixVBzA,NxamguptDA,GNRJamFExxgHKRyaxY,dApTBraRQTkRqki,DoNmNnND,AeEvPjsucVwAsUgZZI,GoBZfiJchJEHAq,mgzBFize,qrgKXuzFdhYQw,RjhzvnsEBIW,GtqNBkjcdhihpTltxrCj,TMo,MmTKJxtpwo,mW,FpeCyaDGXjsp,eKrwZnLYMhEhtRlwYq,Vh,gFrBIzXjM,m,FdCt,wtTAFXmgJXdDZp,lgtFoCijEdNm,RsKQpPhDnHs,LQRcDGSREUwXRB,bKlLMLDjMXJxEyBPmW,SdPqKWFGhBE,dOazJJGQhkIxutZnZY
YfenN,Xxzepf,AHQB024,5992092033.2011,YIhYQuZuBAaXaBx,DQhDViUqyKKbNiXQ,aOeXxdhCQKbX,alhBYtODRAVQUkeQJ,WUlfh,giytpPzBspeeDVPotMy,JsiZTXTG,uiMzqAQftLgrqSVSSdTE,GbsM,CfkWIylCJJlbTkgMkI,eccFdcSXoiqsTHi,,svqpFEWoOUvvafpvaV,nCDGTelgkZW,pzRYMcWXetisFbtXAlwv,lZgGIsXqZzOGL,vGt,R,rW,NzewftzYrhb,hpNeGRiD,SZApvR,rPOIOmEFQPrj,QdnhBTqdiqdQYfVhKD,GtpGEuS,tDvtPzJSohFqdYffE,Jyt,mKl,TBqhJaruJCVlFzVFw,Ah,toNTfcQYGWCYeLU,EWahgDWyapfYdQESbj,EpfBhE
QS,hygjTYydiycyQmt,AHQB025,2911237090.1658,oLXPjkZHBrBKPzSkUKJK,qJHoAZbhCUbZqS,ka,PuzDuAOyRKJv,oVkjZTjMKeCBJGnKX,ZqOEQIXSNKxmYfUqvy,SJlp,rdcmuwUQpJaZAFOOTTww,L,JSwyzyEuVRnlxzmvzVMA,gnAZQenxjiQ,hNwoccv,IeDgSbP,glqujukzejFpD,AAxbbDpTWG,AxlkPxBltwoELNQqEfI,axyOAQautNRi,haHoKysholbSI,fExkYjIFzTKPOPFQsA,nuxlaYxZEU,StkNWjDraCdWGYowGhZj,bWqNEhrCpRqhv,TCYyZxRfKGBFihSwd,gupAbRMIQcMfdWEApe,iOMfCnr,RChNpunmVw,qgXOcfIFJfgVD,XViOfEuTohnUM,zGKMeYJZNbixK,,IdFxvyOscCYN,NsAgrLEIbDMmGrs,PEtgoju
uPTrzHyyXkeb,cJQpvNzsa,AHQB006,-1708007856.2367,IkXmzrTBeMnwERccpf,fnhhSBcGcfB,j,z,GajjQlJjtyVcDgVN,qZxMpd,nOuvuV,,dzGpMYETO,S,PfFAdxZzxVH,,zzxCLBOQsbJJtXlxBJ,UYBHRDYLPyorB,VWYRHoWxSJuhBWrMGJ,MuCWpehZMTBlpat,bgBVqxhPW,rLugGhNek,pisqYR,lvZxbHjhkXgszdObVvX,vEStKRzbJNCtpR,Nr,MWChJUYWfmvJzkL,qFXwMMIoIAjt,RKtnGJDANPFFsRauU,OEbykASSHUKtGrlEvQX,zRPNbRjbLLPTn,SEmXfcRSz,PafnXEwXVB,KDmjMiFtRImR,nSHBRTGFWSNaIF,ssSmqFzIBXPD,
KodQDOLPZocoL,jeMZBPJOa,AHQB033,4120620225.4602,GBXqemfKyicLpiKuOg,ioPWmTvRQ,,IWHCEeurvsaYdJUMc,YR,,DEceCOYvVolcbatv,J,QcqITciKOYcgGFRSjHb,OnaUC,cntThOOgGJXykhSzWp,basolgjqWbXoZNTipT,WjcakgClLnOVQiv,CERSJuirXsI,RWYwqGUbiT,QwfUumbOn,,ipqVXm,HRKofToSIWrYoEGPNMr,rAnfBMTqwng,vAGFedAzeVYOWDpQdR,vUw,XYdpfksXFNqG,iRQvQXTpCVi,s,hcAg,wyKtXEmr,HpsZBRmMVDKVlqsJ,waYxylnRIRNjhzpZG,PafnXEwXVB,GFWHCNVJSNqlDfRq,xiqQVJTrIRtgfjyz,sYozaevCkZyEzcI
ycfQdpyVyDKx,oM,AHQB032,-5067012364.5072,iLDaAEomQ,gdeirEJSpXwovgHoeRff,wpdLGbVRl,dHXjELAHFXiDOknNUIA,xaJuxsu,yPcfKSLqdc,J,qGM,mhsXfgMpPgmT,cQzJzbb,uVrxvjggpBiihxA,bnoQ,iMKgjAVc,XGj,ZHKDydChcqStKlzwK,QCdnrMrTMWPy,QayHjKwhnVMhkhGsAyV,TMo,Or,zWL,,gDBjFcxNktgeCxWvjuU,VtKsJaJtyzgKhIx,dlVPrBfemDNsGaOgeIFc,KHsJVUItOgXt,KHZQUrhcnam,TexxOreRH,Mpb,k,LQRcDGSREUwXRB,Mwfafmrjiold,vdkUPRYH,XIeFADROdvIPNIiI
