BEN_NIR_PSA,BEN_RNG_GEM,IMB_ALD_DTD,IMB_ALD_DTF,IMB_ALD_NUM,IMB_ETM_NAT,IMB_MLP_BTR,IMB_MLP_TAB,IMB_SDR_LOP,INS_DTE,MED_MTF_COD,MED_NCL_IDT,UPD_DTE
jfwiPKtMQfUZX,0,2001-11-25,1914-10-03,4,75120128,Aw,oXIvSJrfpuRxEOf,GJkJopq,2007-01-03,C512,HDinVkEUqUGcwxTbVTD,1954-08-17
s,4,1982-07-13,2026-09-08,3,86903347,VZrJcdRWWG,SM,qxrwzSIbRtyhQNEalc,1903-05-26,C51,fRYJ,1947-03-23
SQxD,3,1932-05-18,1994-09-27,1,71181649,xBPbzpNiXUUyNwugrz,ZrDamrBrSSoCNgBiILvn,,1927-05-28,C519,dQCjXWP,1924-01-14
vqISFDWyhT,4,1998-07-21,1945-09-10,3,70743492,JmyFfdSSjWrFXetbaSI,,hmxFJFhwXAClL,1980-05-25,C512,WcRf,1967-05-19
s,4,1940-09-13,1991-12-29,0,15509851,KpvDRoPMQHAPaef,ERyIoUgZkPiYKZqvpA,rDLEEbouUAJLALHRf,1912-10-11,C518,AJvuqldmjpyI,1901-02-13
HYPvDdkPCQiNgUSPvR,3,2021-11-04,2003-12-14,4,26958768,DQhDViUqyKKbNiXQ,aOeXxdhCQKbX,alhBYtODRAVQUkeQJ,1980-08-14,C531,giytpPzBspeeDVPotMy,2025-12-18
SQxD,3,1905-07-29,1983-12-05,3,76134208,qJHoAZbhCUbZqS,ka,PuzDuAOyRKJv,1907-01-03,C530,ZqOEQIXSNKxmYfUqvy,2004-03-07
NKgkWdGhlybGJBzBgxj,1,1957-04-25,1953-11-25,10,62112710,fnhhSBcGcfB,j,z,2024-11-20,C510,qZxMpd,1998-06-15
Xwmnyydoo,10,2018-08-28,1991-10-15,8,46318022,ioPWmTvRQ,,IWHCEeurvsaYdJUMc,2027-06-17,C519,,1987-04-19
s,4,1959-02-25,1932-01-25,7,51413340,gdeirEJSpXwovgHoeRff,wpdLGbVRl,dHXjELAHFXiDOknNUIA,1967-10-01,C531,yPcfKSLqdc,1903-11-10
