BEN_NIR_PSA,BEN_RNG_GEM,BEN_NIR_ANO,BEN_IDT_ANO,BEN_GRS_DTE,BEN_DRA_AME,IND_RNM_BEN
jfwiPKtMQfUZX,0,tfFvqbAe,cz,2001-11-25,KvGzDJyBNqe,TiItWYuZgJBjmkTGQ
s,4,rBjdAcWVuSljeinYeNT,Xxzepf,1982-07-13,HpwcpGC,dJisS
SQxD,3,FONjBbpYsnT,cz,1932-05-18,UgYcxiv,sOqaKwPi
vqISFDWyhT,4,G,Xxzepf,1998-07-21,sMEnAwVXRh,sKs
s,4,tgaIXNbdkzNOHQsrula,xulZRsHxThWKJTQTWeO,1940-09-13,yMUJqCnjoMFOhHzqZX,ohX
HYPvDdkPCQiNgUSPvR,3,YfenN,cz,2021-11-04,bBEYliwpinKwulZgSKmU,YIhYQuZuBAaXaBx
SQxD,3,QS,Xxzepf,1905-07-29,OjKdlevacIpSTDKN,oLXPjkZHBrBKPzSkUKJK
NKgkWdGhlybGJBzBgxj,1,uPTrzHyyXkeb,cJQpvNzsa,1957-04-25,GJMWKtiwhvfAAKdKeFF,IkXmzrTBeMnwERccpf
Xwmnyydoo,10,KodQDOLPZocoL,geMw,2018-08-28,,GBXqemfKyicLpiKuOg
s,4,ycfQdpyVyDKx,geMw,1959-02-25,IgbRDDrORSSsXJQmcq,iLDaAEomQ
